B Functions | R For Chemists
…
table(DML$element_type)[2] / sum(table(DML$element_type)) * 100
##     free 
## 72.72727

B.5.4 weighted.mean()

(from the stats package)

Suppose we want to calculate mean abundance of pyruvate in patients with kidney disease versus patients that are healthy.

First, let’s just make the data set smaller and easier to see:

ckd_data_pyruvate <- ckd_data[,1:3]
ckd_data_pyruvate
## # A tibble: 93 × 3
##    patient_number patient_status Pyruvate
##             <dbl> <chr>             <dbl>
##  1             20 healthy            14.2
##  2             24 healthy            14.2
##  3             29 healthy            13.9
##  4             52 healthy            13.8
##  5             54 healthy            13.7
##  6             56 healthy            13.4
##  7             57 healthy            13.6
##  8             58 healthy            13.7
##  9             59 healthy            14.5
## 10             60 healthy            13.6
## # … with 83 more rows
…
This means that the weights should be 37/(37+56) and 56/(37+56)

Now, let’s assign those weights to each column:

ckd_data_pyruvate <- mutate(
  ckd_data_pyruvate, 
  weight = case_when(
    patient_status == "healthy" ~ 56/(37+56), patient_status == "kidney_disease" ~ 37/(37+56)
  )
)
ckd_data_pyruvate
## # A tibble: 93 × 4
##    patient_number patient_status Pyruvate weight
##             <dbl> <chr>             <dbl>  <dbl>
##  1             20 healthy            14.2  0.602
##  2             24 healthy            14.2  0.602
##  3             29 healthy            13.9  0.602
##  4             52 healthy            13.8  0.602
##  5             54 healthy            13.7  0.602
##  6             56 healthy            13.4  0.602
##  7             57 healthy            13.6  0.602
##  8             58 healthy            13.7  0.602
##  9             59 healthy            14.5  0.602
## 10             60 healthy            13.6  0.602
## # … with 83 more rows
…
