14 k-means | R For Chemists
…
solvents_pca_kmeans
## # A tibble: 32 × 15
##    sample_unique_ID  solvent formula miscible_with_w… CAS_number category  Dim.1
##    <chr>             <chr>   <chr>   <lgl>            <chr>      <chr>     <dbl>
##  1 acetic_acid_C2H4… acetic… C2H4O2  TRUE             64-19-7    oxygen_… -0.178
##  2 acetone_C3H6O_TR… acetone C3H6O   TRUE             67-64-1    oxygen_… -1.66 
##  3 acetonitrile_C2H… aceton… C2H3N   TRUE             75-05-8    nitroge… -1.70 
##  4 benzene_C6H6_FAL… benzene C6H6    FALSE            71-43-2    hydroca…  1.19 
##  5 benzonitrile_C7H… benzon… C7H5N   FALSE            100-47-0   nitroge…  2.57 
##  6 1-butanol_C4H10O… 1-buta… C4H10O  FALSE            71-36-3    alcohol  -0.815
##  7 2-butanone_C4H8O… 2-buta… C4H8O   FALSE            78-93-3    oxygen_… -0.938
##  8 carbon_disulfide… carbon… CS2     FALSE            75-15-0    sulfide   1.74 
##  9 carbon_tetrachlo… carbon… CCl4    FALSE            56-23-5    chlorin…  3.46 
## 10 chlorobenzene_C6… chloro… C6H5Cl  FALSE            108-90-7   chlorin…  2.34 
## # … with 22 more rows, and 8 more variables: Dim.2 <dbl>, kmeans_cluster <chr>,
## #   boiling_point <dbl>, melting_point <dbl>, density <dbl>,
## #   relative_polarity <dbl>, formula_weight <dbl>, refractive_index <dbl>
…
solvents_pca_kmeans_elbow
## # A tibble: 31 × 2
##    cluster_number variance_within_cluster
##             <dbl>                   <dbl>
##  1              1                 142804.
##  2              2                  67355.
##  3              3                  49545.
##  4              4                  38964.
##  5              5                  30702.
##  6              6                  25212.
##  7              7                  20188.
##  8              8                  16508.
##  9              9                  14346.
## 10             10                  12265.
## # … with 21 more rows
…
