8 Summary Statistics | R For Chemists
…
The NY Trees dataset contains information on nearly half a million trees in New York City (this is after considerable filtering and simplification):

library(tidyverse)
ny_trees <- read_csv("https://thebustalab.github.io/R_For_Chemists/sample_data/NY_trees.csv")
## Rows: 378762 Columns: 14
## ── Column specification ────────────────────────────────────────────────────────
## Delimiter: ","
## chr (9): address, tree_loc, pit_type, soil_lvl, status, spc_latin, spc_commo...
## dbl (5): tree_height, tree_diameter, zipcode, latitude, longitude
## 
## ℹ Use `spec()` to retrieve the full column specification for this data.
## ℹ Specify the column types or set `show_col_types = FALSE` to quiet this message.
ny_trees
## # A tibble: 378,762 × 14
##    tree_height tree_diameter address tree_loc pit_type soil_lvl status spc_latin
##          <dbl>         <dbl> <chr>   <chr>    <chr>    <chr>    <chr>  <chr>    
##  1        21.1             6 1139 5… Front    Sidewal… Level    Good   PYRUS CA…
##  2        59.0             6 2220 B… Across   Sidewal… Level    Good   PLATANUS…
##  3        92.4            13 2254 B… Across   Sidewal… Level    Good   PLATANUS…
##  4        50.2            15 2332 B… Across   Sidewal… Level    Good   PLATANUS…
##  5        95.0            21 2361 E… Front    Sidewal… Level    Poor   PLATANUS…
##  6        67.5            19 2409 E… Front    Continu… Level    Good   PLATANUS…
##  7        75.3            11 1481 E… Front    Lawn     Level    Excel… PLATANUS…
##  8        27.9             7 1129 5… Front    Sidewal… Level    Good   PYRUS CA…
##  9       111.             26 2076 E… Across   Sidewal… Level    Excel… PLATANUS…
## 10        83.9            20 2025 E… Front    Sidewal… Level    Excel… PLATANUS…
## # … with 378,752 more rows, and 6 more variables: spc_common <chr>,
## #   trunk_dmg <chr>, zipcode <dbl>, boroname <chr>, latitude <dbl>,
## #   longitude <dbl>
…
While this format is very nice for filling in my hand (such as in a lab notebook or similar), it does not groove with ggplot and other tidyverse functions very well. We need to convert it into a long-style table. This is done using pivot_longer(). You can think of this function as transforming both your data’s column names (or some of the column names) and your data matrix’s values (in this case, the measurements) each into their own variables (i.e. columns). We can do this for our fatty acid dataset using the command below. In it, we specify what data we want to transform (data = FAs), we need to tell it what columns we want to transform (cols = 2:11), what we want the new variable that contains column names to be called (names_to = "plant_species") and what we want the new variable that contains matrix values to be called (values_to = "relative_abundance"). All together now:

pivot_longer(data = FAs, cols = 2:11, names_to = "plant_species", values_to = "relative_abundance")
## # A tibble: 70 × 3
##    fatty_acid        plant_species           relative_abundance
##    <chr>             <chr>                                <dbl>
##  1 Hexadecanoic acid Agonandra_brasiliensis                 3.4
##  2 Hexadecanoic acid Agonandra_silvatica                    1  
##  3 Hexadecanoic acid Agonandra_excelsa                      1.2
##  4 Hexadecanoic acid Heisteria_silvianii                    2.9
##  5 Hexadecanoic acid Malania_oleifera                       0.7
##  6 Hexadecanoic acid Ximenia_americana                      3.3
##  7 Hexadecanoic acid Ongokea_gore                           1  
##  8 Hexadecanoic acid Comandra_pallida                       2.3
##  9 Hexadecanoic acid Buckleya_distichophylla                1.6
## 10 Hexadecanoic acid Nuytsia_floribunda                     3.8
## # … with 60 more rows
…
