clustering | Integrated Bioanalytics
…
There is more that we can do with distance matrices though, lots more. Let’s start by looking at an example of hierarchical clustering. For this, we just need to tell runMatrixAnalysis() to use analysis = "hclust":

AK_lakes_clustered <- runMatrixAnalysis(
    data = alaska_lake_data,
    analysis = "hclust",
    column_w_names_of_multiple_analytes = "element",
    column_w_values_for_multiple_analytes = "mg_per_L",
    columns_w_values_for_single_analyte = c("water_temp", "pH"),
    columns_w_additional_analyte_info = "element_type",
    columns_w_sample_ID_info = c("lake", "park"),
    na_replacement = "mean"
)
## Replacing NAs in your data with mean
AK_lakes_clustered
## # A tibble: 39 × 25
##    sample_unique_ID   lake  park  parent  node branch.length
##    <chr>              <chr> <chr>  <int> <int>         <dbl>
##  1 Devil_Mountain_La… Devi… BELA      33     1         0.987
##  2 Imuruk_Lake_BELA   Imur… BELA      39     2         0.820
##  3 Kuzitrin_Lake_BELA Kuzi… BELA      38     3         0.703
##  4 Lava_Lake_BELA     Lava… BELA      31     4         0.743
##  5 North_Killeak_Lak… Nort… BELA      21     5         5.62 
##  6 White_Fish_Lake_B… Whit… BELA      22     6         3.89 
##  7 Iniakuk_Lake_GAAR  Inia… GAAR      28     7         1.25 
##  8 Kurupa_Lake_GAAR   Kuru… GAAR      35     8         0.954
##  9 Lake_Matcharak_GA… Lake… GAAR      35     9         0.954
## 10 Lake_Selby_GAAR    Lake… GAAR      36    10         1.12 
## # … with 29 more rows, and 19 more variables: label <chr>,
## #   isTip <lgl>, x <dbl>, y <dbl>, branch <dbl>,
## #   angle <dbl>, water_temp <dbl>, pH <dbl>, C <dbl>,
## #   N <dbl>, P <dbl>, Cl <dbl>, S <dbl>, F <dbl>, Br <dbl>,
## #   Na <dbl>, K <dbl>, Ca <dbl>, Mg <dbl>
…
solvents_pca_kmeans
## # A tibble: 32 × 14
##    sample_unique_ID         solvent formula miscible_with_w…
##    <chr>                    <chr>   <chr>   <lgl>           
##  1 acetic_acid_C2H4O2_TRUE… acetic… C2H4O2  TRUE            
##  2 acetone_C3H6O_TRUE_67-6… acetone C3H6O   TRUE            
##  3 acetonitrile_C2H3N_TRUE… aceton… C2H3N   TRUE            
##  4 benzene_C6H6_FALSE_71-4… benzene C6H6    FALSE           
##  5 benzonitrile_C7H5N_FALS… benzon… C7H5N   FALSE           
##  6 1-butanol_C4H10O_FALSE_… 1-buta… C4H10O  FALSE           
##  7 2-butanone_C4H8O_FALSE_… 2-buta… C4H8O   FALSE           
##  8 carbon_disulfide_CS2_FA… carbon… CS2     FALSE           
##  9 carbon_tetrachloride_CC… carbon… CCl4    FALSE           
## 10 chlorobenzene_C6H5Cl_FA… chloro… C6H5Cl  FALSE           
## # … with 22 more rows, and 10 more variables:
## #   CAS_number <chr>, category <chr>, Dim.1 <dbl>,
## #   Dim.2 <dbl>, boiling_point <dbl>, melting_point <dbl>,
## #   density <dbl>, relative_polarity <dbl>,
## #   formula_weight <dbl>, refractive_index <dbl>
…
