comparing means | Integrated Bioanalytics
…
“Are these two things the same?”

Often, we want to know if our study subjects contain different amounts of certain analytes. For example, “Does this lake over here contain more potassium than that lake over there?” For this, we need statistical tests. Here, we will have a look at comparing mean values for analyte abundance in situations with two samples and in situations with more than two samples.

I find many of the concepts discussed in this chapter easier to think about with an example in mind. For that, suppose that you are an analytical chemist on Hawaii that is studying the chemistry of the island’s aquifers. you have the data set hawaii_aquifers. You can see in the output below the structure of the data set - we have 990 measurements of a 9 different analytes in multiple wells that draw on a set of 10 aquifers.

hawaii_aquifers
## # A tibble: 990 × 6
##    aquifer_code well_name         longitude latitude analyte
##    <chr>        <chr>                 <dbl>    <dbl> <chr>  
##  1 aquifer_1    Alewa_Heights_Sp…        NA       NA SiO2   
##  2 aquifer_1    Alewa_Heights_Sp…        NA       NA Cl     
##  3 aquifer_1    Alewa_Heights_Sp…        NA       NA Mg     
##  4 aquifer_1    Alewa_Heights_Sp…        NA       NA Na     
##  5 aquifer_1    Alewa_Heights_Sp…        NA       NA K      
##  6 aquifer_1    Alewa_Heights_Sp…        NA       NA SO4    
##  7 aquifer_1    Alewa_Heights_Sp…        NA       NA HCO3   
##  8 aquifer_1    Alewa_Heights_Sp…        NA       NA dissol…
##  9 aquifer_1    Alewa_Heights_Sp…        NA       NA Ca     
## 10 aquifer_1    Beretania_High_S…        NA       NA SiO2   
## # … with 980 more rows, and 1 more variable:
## #   abundance <dbl>
…
When we are comparing means, we need to first determine what kind of statistical tests we can use with our data. If (i) our data can be reasonably modelled by a normal distribution and (ii) the variances about the two means are similar, then we can use the more powerful “parametric” tests (i.e. tests that will be more likely to detect a difference in means, assuming one exists). If one of these criteria are not met, then we need to use less powerful “non-parametric” tests.

We can check our data for normality and similar variances using the Shapiro test and the Levene test. Let’s use the hawaii_aquifers data as an example, and let’s consider only the element potassium:

K_data <- hawaii_aquifers %>%
  filter(analyte == "K")
  K_data
## # A tibble: 110 × 6
##    aquifer_code well_name         longitude latitude analyte
##    <chr>        <chr>                 <dbl>    <dbl> <chr>  
##  1 aquifer_1    Alewa_Heights_Sp…       NA      NA   K      
##  2 aquifer_1    Beretania_High_S…       NA      NA   K      
##  3 aquifer_1    Beretania_Low_Se…       NA      NA   K      
##  4 aquifer_1    Kuliouou_Well         -158.     21.3 K      
##  5 aquifer_1    Manoa_Well_II         -158.     21.3 K      
##  6 aquifer_1    Moanalua_Wells_P…     -158.     21.4 K      
##  7 aquifer_1    Moanalua_Wells_P…     -158.     21.4 K      
##  8 aquifer_1    Moanalua_Wells_P…     -158.     21.4 K      
##  9 aquifer_1    Nuuanu_Aerator_W…     -158.     21.4 K      
## 10 aquifer_1    Palolo_Tunnel         -158.     21.3 K      
## # … with 100 more rows, and 1 more variable:
## #   abundance <dbl>

To work with two means, let’s just look at aquifers 1 and 6:

K_data_1_2 <- K_data %>%
    filter(aquifer_code %in% c("aquifer_1", "aquifer_6"))

K_data_1_2
## # A tibble: 24 × 6
##    aquifer_code well_name         longitude latitude analyte
##    <chr>        <chr>                 <dbl>    <dbl> <chr>  
##  1 aquifer_1    Alewa_Heights_Sp…       NA      NA   K      
##  2 aquifer_1    Beretania_High_S…       NA      NA   K      
##  3 aquifer_1    Beretania_Low_Se…       NA      NA   K      
##  4 aquifer_1    Kuliouou_Well         -158.     21.3 K      
##  5 aquifer_1    Manoa_Well_II         -158.     21.3 K      
##  6 aquifer_1    Moanalua_Wells_P…     -158.     21.4 K      
##  7 aquifer_1    Moanalua_Wells_P…     -158.     21.4 K      
##  8 aquifer_1    Moanalua_Wells_P…     -158.     21.4 K      
##  9 aquifer_1    Nuuanu_Aerator_W…     -158.     21.4 K      
## 10 aquifer_1    Palolo_Tunnel         -158.     21.3 K      
## # … with 14 more rows, and 1 more variable: abundance <dbl>
…
A p-value of 0.028! This is higher than the value given by the t-test (0.012). That is because the Wilcox test is a less powerful test: it is less likely to detect differences in means, assuming they exist.

1.17 more than two means

In the previous section we compared two means. What if we want to compare means from more than two study subjects? The first step is again to determine which tests to use. Let’s consider our hawaii aquifer data again, though this time let’s use all the aquifers, not just two:

K_data <- hawaii_aquifers %>%
  filter(analyte == "K")

K_data
## # A tibble: 110 × 6
##    aquifer_code well_name         longitude latitude analyte
##    <chr>        <chr>                 <dbl>    <dbl> <chr>  
##  1 aquifer_1    Alewa_Heights_Sp…       NA      NA   K      
##  2 aquifer_1    Beretania_High_S…       NA      NA   K      
##  3 aquifer_1    Beretania_Low_Se…       NA      NA   K      
##  4 aquifer_1    Kuliouou_Well         -158.     21.3 K      
##  5 aquifer_1    Manoa_Well_II         -158.     21.3 K      
##  6 aquifer_1    Moanalua_Wells_P…     -158.     21.4 K      
##  7 aquifer_1    Moanalua_Wells_P…     -158.     21.4 K      
##  8 aquifer_1    Moanalua_Wells_P…     -158.     21.4 K      
##  9 aquifer_1    Nuuanu_Aerator_W…     -158.     21.4 K      
## 10 aquifer_1    Palolo_Tunnel         -158.     21.3 K      
## # … with 100 more rows, and 1 more variable:
## #   abundance <dbl>
…
We will use the anova_test function from the package rstatix. It will tell us if any of the means in the data are statistically different from one another. However, if there are differences between the means, it will not tell us which of them are different.

K_data %>%
  anova_test(abundance ~ aquifer_code)
## Coefficient covariances computed by hccm()
## ANOVA Table (type II tests)
## 
##         Effect DFn DFd      F        p p<.05   ges
## 1 aquifer_code   9 100 10.021 7.72e-11     * 0.474

A p-value of 7.7e-11! There are definitely some significant differences among this group. But, WHICH are different from one another though? For this, we need to run Tukey’s Honest Significant Difference test (implemented using tukey_hsd). This will essentially run t-test on all the pairs of study subjects that we can derive from our data set (in this example, aquifer_1 vs. aquifer_2, aquifer_1 vs. aquifer_3, etc.). After that, it will correct the p-values according to the number of comparisons that it performed. This controls the rate of type I error that we can expect from the test. These corrected values are provided to us in the p.adj column.

K_data %>%
  tukey_hsd(abundance ~ aquifer_code)
## # A tibble: 45 × 9
##    term         group1   group2 null.value estimate conf.low
##  * <chr>        <chr>    <chr>       <dbl>    <dbl>    <dbl>
##  1 aquifer_code aquifer… aquif…          0  0.00357   -2.00 
##  2 aquifer_code aquifer… aquif…          0  1.44      -0.668
##  3 aquifer_code aquifer… aquif…          0  0.375     -2.35 
##  4 aquifer_code aquifer… aquif…          0 -1.15      -2.75 
##  5 aquifer_code aquifer… aquif…          0 -0.845     -3.09 
##  6 aquifer_code aquifer… aquif…          0  1.98       0.261
##  7 aquifer_code aquifer… aquif…          0  2.70       0.837
##  8 aquifer_code aquifer… aquif…          0 -0.125     -2.85 
##  9 aquifer_code aquifer… aquif…          0 -0.378     -1.78 
## 10 aquifer_code aquifer… aquif…          0  1.44      -0.910
## # … with 35 more rows, and 3 more variables:
## #   conf.high <dbl>, p.adj <dbl>, p.adj.signif <chr>
…
The above ANOVA example is great, but remember - our data did not pass the Shapiro or Levene tests. This means not all our data can be modelled by a normal distribution and taht we need to use a non-parametric test. The non-parametric alternative to the ANOVA is called the Kruskal test. Like the Wilcox test, it is less powerful that its parametric relative, meaning that it is less likely to detected differences, should they exist. However, since our data do not pass the Shapiro/Levene tests, we have to resort to the Kruskal test. Let’s try it out:

K_data %>%
  kruskal_test(abundance ~ aquifer_code)
## # A tibble: 1 × 6
##   .y.           n statistic    df            p method       
## * <chr>     <int>     <dbl> <int>        <dbl> <chr>        
## 1 abundance   110      57.7     9 0.0000000037 Kruskal-Wall…

A p-value of 3.9e-9! This is higher than the p-value from running ANOVA on the same data (remember, the Kruskal test is less powerful). Never the less, the value is still well below 0.05, meaning that some of the means are different. So, how do we determine WHICH are different from one another? When we ran ANOVA the follow-up test (the post hoc test) was Tukey’s HSD. After the Kruskal test, the post hoc test we use is the Dunn test. Let’s try:

K_data %>%
  dunn_test(abundance ~ aquifer_code)
## # A tibble: 45 × 9
##    .y.    group1 group2    n1    n2 statistic       p  p.adj
##  * <chr>  <chr>  <chr>  <int> <int>     <dbl>   <dbl>  <dbl>
##  1 abund… aquif… aquif…    12     7    -0.205 0.838   1     
##  2 abund… aquif… aquif…    12     6     2.25  0.0242  0.702 
##  3 abund… aquif… aquif…    12     3     0.911 0.362   1     
##  4 abund… aquif… aquif…    12    17    -2.70  0.00702 0.232 
##  5 abund… aquif… aquif…    12     5    -1.15  0.252   1     
##  6 abund… aquif… aquif…    12    12     2.53  0.0113  0.351 
##  7 abund… aquif… aquif…    12     9     3.02  0.00254 0.0967
##  8 abund… aquif… aquif…    12     3     0.182 0.855   1     
##  9 abund… aquif… aquif…    12    36    -0.518 0.605   1     
## 10 abund… aquif… aquif…     7     6     2.20  0.0278  0.777 
## # … with 35 more rows, and 1 more variable:
## #   p.adj.signif <chr>
…
