data wranging | Integrated Bioanalytics
…
You can quickly find paths to files via the following:

On Mac: Locate the file in Finder. Right-click on the file, hold the Option key, then click “Copy  as Pathname”

On PC: Locate the file in Windows Explorer. Hold down the Shift key then right-click on the file. Click “Copy As Path”

With these paths, we can read in data using the read_csv command. We’ll run read_csv("<path_to_your_data>"). Note the use of QUOTES ""! Those are necessary. Also make sure your path uses the appropriate direction of slashes for your operating system.

subsetting

So far, we have always been passing whole data sets to ggplot to do our plotting. However, suppose we wanted to get at just certain portions of our dataset, say, specific columns, or specific rows? Here are a few ways to do that:

# To look at a single column (the third column)
alaska_lake_data[,3]
## # A tibble: 220 × 1
##    water_temp
##         <dbl>
##  1       6.46
##  2       6.46
##  3       6.46
##  4       6.46
##  5       6.46
##  6       6.46
##  7       6.46
##  8       6.46
##  9       6.46
## 10       6.46
## # … with 210 more rows

# To look at select columns:
alaska_lake_data[,2:5]
## # A tibble: 220 × 4
##    park  water_temp    pH element
##    <chr>      <dbl> <dbl> <chr>  
##  1 BELA        6.46  7.69 C      
##  2 BELA        6.46  7.69 N      
##  3 BELA        6.46  7.69 P      
##  4 BELA        6.46  7.69 Cl     
##  5 BELA        6.46  7.69 S      
##  6 BELA        6.46  7.69 F      
##  7 BELA        6.46  7.69 Br     
##  8 BELA        6.46  7.69 Na     
##  9 BELA        6.46  7.69 K      
## 10 BELA        6.46  7.69 Ca     
## # … with 210 more rows
…
# To look at select columns by name
select(alaska_lake_data, park, water_temp)
## # A tibble: 220 × 2
##    park  water_temp
##    <chr>      <dbl>
##  1 BELA        6.46
##  2 BELA        6.46
##  3 BELA        6.46
##  4 BELA        6.46
##  5 BELA        6.46
##  6 BELA        6.46
##  7 BELA        6.46
##  8 BELA        6.46
##  9 BELA        6.46
## 10 BELA        6.46
## # … with 210 more rows
…
While this format is very nice for filling in my hand (such as in a lab notebook or similar), it does not groove with ggplot and other tidyverse functions very well. We need to convert it into a long-style table. This is done using pivot_longer(). You can think of this function as transforming both your data’s column names (or some of the column names) and your data matrix’s values (in this case, the measurements) each into their own variables (i.e. columns). We can do this for our fatty acid dataset using the command below. In it, we specify what data we want to transform (data = fadb_sample), we need to tell it what columns we want to transform (cols = 2:11), what we want the new variable that contains column names to be called (names_to = "plant_species") and what we want the new variable that contains matrix values to be called (values_to = "relative_abundance"). All together now:

pivot_longer(data = fadb_sample, cols = 2:11, names_to = "plant_species", values_to = "relative_abundance")
## # A tibble: 70 × 3
##    fatty_acid        plant_species          relative_abunda…
##    <chr>             <chr>                             <dbl>
##  1 Hexadecanoic acid Agonandra_brasiliensis              3.4
##  2 Hexadecanoic acid Agonandra_silvatica                 1  
##  3 Hexadecanoic acid Agonandra_excelsa                   1.2
##  4 Hexadecanoic acid Heisteria_silvianii                 2.9
##  5 Hexadecanoic acid Malania_oleifera                    0.7
##  6 Hexadecanoic acid Ximenia_americana                   3.3
##  7 Hexadecanoic acid Ongokea_gore                        1  
##  8 Hexadecanoic acid Comandra_pallida                    2.3
##  9 Hexadecanoic acid Buckleya_distichophyl…              1.6
## 10 Hexadecanoic acid Nuytsia_floribunda                  3.8
## # … with 60 more rows
…
The pipe will become more important as our analyses become more sophisticated, which happens very quickly when we start working with summary statistics, as we shall now see…

1.3 summary statistics

So far, we have been plotting raw data. This is well and good, but it is not always suitable. Often we have scientific questions that cannot be answered by looking at raw data alone, or sometimes there is too much raw data to plot. For this, we need summary statistics - things like averages, standard deviations, and so on. While these metrics can be computed in Excel, programming such can be time consuming, especially for group statistics. Consider the example below, which uses the ny_trees dataset. The NY Trees dataset contains information on nearly half a million trees in New York City (this is after considerable filtering and simplification):

ny_trees
## # A tibble: 378,762 × 14
##    tree_height tree_diameter address       tree_loc pit_type
##          <dbl>         <dbl> <chr>         <chr>    <chr>   
##  1        21.1             6 1139 57 STRE… Front    Sidewal…
##  2        59.0             6 2220 BERGEN … Across   Sidewal…
##  3        92.4            13 2254 BERGEN … Across   Sidewal…
##  4        50.2            15 2332 BERGEN … Across   Sidewal…
##  5        95.0            21 2361 EAST   … Front    Sidewal…
##  6        67.5            19 2409 EAST   … Front    Continu…
##  7        75.3            11 1481 EAST   … Front    Lawn    
##  8        27.9             7 1129 57 STRE… Front    Sidewal…
##  9       111.             26 2076 EAST   … Across   Sidewal…
## 10        83.9            20 2025 EAST   … Front    Sidewal…
## # … with 378,752 more rows, and 9 more variables:
## #   soil_lvl <chr>, status <chr>, spc_latin <chr>,
## #   spc_common <chr>, trunk_dmg <chr>, zipcode <dbl>,
## #   boroname <chr>, latitude <dbl>, longitude <dbl>
…
Cool! Just like that, we’ve found (and visualized) the average and standard deviation of tree heights, by species, in NYC. But it doesn’t stop there. We can use group_by() and summarize() on multiple variables (i.e. more groups). We can do this to examine the properties of each tree species in each NYC borough. Let’s check it out:

ny_trees %>%
  group_by(spc_latin, boroname) %>%
  summarize(
    mean_diam = mean(tree_diameter),
    stdev_diam = sd(tree_diameter)
  ) -> ny_trees_by_spc_boro_summ
ny_trees_by_spc_boro_summ
## # A tibble: 48 × 4
## # Groups:   spc_latin [12]
##    spc_latin        boroname  mean_diam stdev_diam
##    <chr>            <chr>         <dbl>      <dbl>
##  1 ACER PLATANOIDES Bronx         13.9        6.74
##  2 ACER PLATANOIDES Brooklyn      15.4       14.9 
##  3 ACER PLATANOIDES Manhattan     11.6        8.45
##  4 ACER PLATANOIDES Queens        15.1       12.9 
##  5 ACER RUBRUM      Bronx         11.4        7.88
##  6 ACER RUBRUM      Brooklyn      10.5        7.41
##  7 ACER RUBRUM      Manhattan      6.63       4.23
##  8 ACER RUBRUM      Queens        14.1        8.36
##  9 ACER SACCHARINUM Bronx         19.7       10.5 
## 10 ACER SACCHARINUM Brooklyn      22.2       10.1 
## # … with 38 more rows
…
