data visualization | Integrated Bioanalytics
…
Ok, we’ve got the installation out of the way. Let’s get down to working with data and generating reports! In R, data is stored in objects. You can think of objects as if they were “files” inside an R session. phylochemistry provides a variety of objects for us to work with.

Let’s look at how to create an object. For this, we can use an arrow: <- . The arrow will take something and store it inside an object. For example:

new_object <- 1

Now we’ve got a new object called new_object, and inside of it is the number 1. To look at what’s inside an object, we can simply type the name of the object into the console:

new_object
## [1] 1

Easy! Let’s look at one of the objects that comes with our class code base. What are the dimensions of the “algae_data” data set?

algae_data
## # A tibble: 180 × 5
##    replicate algae_strain harvesting_regime chemical_species
##        <dbl> <chr>        <chr>             <chr>           
##  1         1 Tsv1         Heavy             FAs             
##  2         1 Tsv1         Heavy             saturated_Fas   
##  3         1 Tsv1         Heavy             omega_3_polyuns…
##  4         1 Tsv1         Heavy             monounsaturated…
##  5         1 Tsv1         Heavy             polyunsaturated…
##  6         1 Tsv1         Heavy             omega_6_polyuns…
##  7         1 Tsv1         Heavy             lysine          
##  8         1 Tsv1         Heavy             methionine      
##  9         1 Tsv1         Heavy             essential_Aas   
## 10         1 Tsv1         Heavy             non_essential_A…
## # … with 170 more rows, and 1 more variable:
## #   abundance <dbl>
…
