data wrangling and summaries | Integrated Bioanalytics
…
While this format is very nice for filling in my hand (such as in a lab notebook or similar), it does not groove with ggplot and other tidyverse functions very well. We need to convert it into a long-style table. This is done using pivot_longer(). You can think of this function as transforming both your data’s column names (or some of the column names) and your data matrix’s values (in this case, the measurements) each into their own variables (i.e. columns). We can do this for our fatty acid dataset using the command below. In it, we specify what data we want to transform (data = fadb_sample), we need to tell it what columns we want to transform (cols = 2:11), what we want the new variable that contains column names to be called (names_to = "plant_species") and what we want the new variable that contains matrix values to be called (values_to = "relative_abundance"). All together now:

pivot_longer(data = fadb_sample, cols = 2:11, names_to = "plant_species", values_to = "relative_abundance")
## # A tibble: 70 × 3
##    fatty_acid        plant_species        relative_abundance
##    <chr>             <chr>                             <dbl>
##  1 Hexadecanoic acid Agonandra_brasilien…                3.4
##  2 Hexadecanoic acid Agonandra_silvatica                 1  
##  3 Hexadecanoic acid Agonandra_excelsa                   1.2
##  4 Hexadecanoic acid Heisteria_silvianii                 2.9
##  5 Hexadecanoic acid Malania_oleifera                    0.7
##  6 Hexadecanoic acid Ximenia_americana                   3.3
##  7 Hexadecanoic acid Ongokea_gore                        1  
##  8 Hexadecanoic acid Comandra_pallida                    2.3
##  9 Hexadecanoic acid Buckleya_distichoph…                1.6
## 10 Hexadecanoic acid Nuytsia_floribunda                  3.8
## # ℹ 60 more rows
…
Cool! Just like that, we’ve found (and visualized) the average and standard deviation of tree heights, by species, in NYC. But it doesn’t stop there. We can use group_by() and summarize() on multiple variables (i.e. more groups). We can do this to examine the properties of each tree species in each NYC borough. Let’s check it out:

ny_trees %>%
  group_by(spc_latin, boroname) %>%
  summarize(
    mean_diam = mean(tree_diameter),
    stdev_diam = sd(tree_diameter)
  ) -> ny_trees_by_spc_boro_summ
ny_trees_by_spc_boro_summ
## # A tibble: 48 × 4
## # Groups:   spc_latin [12]
##    spc_latin        boroname  mean_diam stdev_diam
##    <chr>            <chr>         <dbl>      <dbl>
##  1 ACER PLATANOIDES Bronx         13.9        6.74
##  2 ACER PLATANOIDES Brooklyn      15.4       14.9 
##  3 ACER PLATANOIDES Manhattan     11.6        8.45
##  4 ACER PLATANOIDES Queens        15.1       12.9 
##  5 ACER RUBRUM      Bronx         11.4        7.88
##  6 ACER RUBRUM      Brooklyn      10.5        7.41
##  7 ACER RUBRUM      Manhattan      6.63       4.23
##  8 ACER RUBRUM      Queens        14.1        8.36
##  9 ACER SACCHARINUM Bronx         19.7       10.5 
## 10 ACER SACCHARINUM Brooklyn      22.2       10.1 
## # ℹ 38 more rows
…
Now we are getting somewhere. It looks like there are some really big maple trees (Acer) in Queens.

ordering

We can also sort or order a data frame based on a specific column with the command arrange(). Let’s have a quick look. Suppose we wanted to know which lake was the coldest:

arrange(alaska_lake_data, water_temp)
## # A tibble: 220 × 7
##    lake             park  water_temp    pH element mg_per_L
##    <chr>            <chr>      <dbl> <dbl> <chr>      <dbl>
##  1 Desperation_Lake NOAT        2.95  6.34 C          2.1  
##  2 Desperation_Lake NOAT        2.95  6.34 N          0.005
##  3 Desperation_Lake NOAT        2.95  6.34 P          0    
##  4 Desperation_Lake NOAT        2.95  6.34 Cl         0.2  
##  5 Desperation_Lake NOAT        2.95  6.34 S          2.73 
##  6 Desperation_Lake NOAT        2.95  6.34 F          0.01 
##  7 Desperation_Lake NOAT        2.95  6.34 Br         0    
##  8 Desperation_Lake NOAT        2.95  6.34 Na         1.11 
##  9 Desperation_Lake NOAT        2.95  6.34 K          0.16 
## 10 Desperation_Lake NOAT        2.95  6.34 Ca         5.87 
## # ℹ 210 more rows
## # ℹ 1 more variable: element_type <chr>

Or suppose we wanted to know which was the warmest?

arrange(alaska_lake_data, desc(water_temp))
## # A tibble: 220 × 7
##    lake      park  water_temp    pH element mg_per_L
##    <chr>     <chr>      <dbl> <dbl> <chr>      <dbl>
##  1 Lava_Lake BELA        20.2  7.42 C          8.3  
##  2 Lava_Lake BELA        20.2  7.42 N          0.017
##  3 Lava_Lake BELA        20.2  7.42 P          0.001
##  4 Lava_Lake BELA        20.2  7.42 Cl         2.53 
##  5 Lava_Lake BELA        20.2  7.42 S          0.59 
##  6 Lava_Lake BELA        20.2  7.42 F          0.04 
##  7 Lava_Lake BELA        20.2  7.42 Br         0.01 
##  8 Lava_Lake BELA        20.2  7.42 Na         2.93 
##  9 Lava_Lake BELA        20.2  7.42 K          0.57 
## 10 Lava_Lake BELA        20.2  7.42 Ca        11.8  
## # ℹ 210 more rows
## # ℹ 1 more variable: element_type <chr>
…
