dimensional reduction | Integrated Bioanalytics
…
Figure 3.1: Overview of dimensional reduction. The schematic shows how high-dimensional measurements are projected into a lower-dimensional space so that dominant trends among samples can be visualized and interpreted.

In the previous chapters, we looked at how to explore our data sets by visualizing many variables and manually identifying trends. Sometimes, we encounter data sets with so many variables, that it is not reasonable to manually select certain variables with which to create plots and manually search for trends. In these cases, we need dimensionality reduction - a set of techniques that helps us identify which variables are driving differences among our samples. In this course, we will conduct dimensionality reduction using runMatrixAnalyses(), a function that is loaded into your R Session when you run the source() command.

Matrix analyses can be a bit tricky to set up. There are two things that we can do to help us with this: (i) we will use a template for runMatrixAnalyses() (see below) and (ii) it is critical that we think about our data in terms of samples and analytes. Let’s consider our Alaska lakes data set:

alaska_lake_data
## # A tibble: 220 × 7
##    lake              park  water_temp    pH element mg_per_L
##    <chr>             <chr>      <dbl> <dbl> <chr>      <dbl>
##  1 Devil_Mountain_L… BELA        6.46  7.69 C          3.4  
##  2 Devil_Mountain_L… BELA        6.46  7.69 N          0.028
##  3 Devil_Mountain_L… BELA        6.46  7.69 P          0    
##  4 Devil_Mountain_L… BELA        6.46  7.69 Cl        10.4  
##  5 Devil_Mountain_L… BELA        6.46  7.69 S          0.62 
##  6 Devil_Mountain_L… BELA        6.46  7.69 F          0.04 
##  7 Devil_Mountain_L… BELA        6.46  7.69 Br         0.02 
##  8 Devil_Mountain_L… BELA        6.46  7.69 Na         8.92 
##  9 Devil_Mountain_L… BELA        6.46  7.69 K          1.2  
## 10 Devil_Mountain_L… BELA        6.46  7.69 Ca         5.73 
## # ℹ 210 more rows
## # ℹ 1 more variable: element_type <chr>
…
