evolutionary analyses | Integrated Bioanalytics
…
One convenient approach is to use ggplot’s fortify. This will convert your phylo object into a data frame:

test_tree_big_fortified <- fortify(test_tree_big)
test_tree_big_fortified
## # A tibble: 111 × 9
##    parent  node branch.length label isTip     x     y branch
##     <int> <int>         <dbl> <chr> <lgl> <dbl> <dbl>  <dbl>
##  1     59     1         145.  Echi… TRUE   188.     1   116.
##  2     60     2          78.8 Epip… TRUE   188.     2   149.
##  3     60     3          78.8 Anth… TRUE   188.     3   149.
##  4     61     4         135.  Alst… TRUE   188.     4   121.
##  5     63     5          48.7 Tulb… TRUE   188.     8   164.
##  6     64     6          42.3 Leuc… TRUE   188.     9   167.
##  7     65     7          24.1 Alli… TRUE   188.    10   176.
##  8     65     8          24.1 Alli… TRUE   188.    11   176.
##  9     66     9          31.8 Apod… TRUE   188.     5   172.
## 10     67    10          10.1 Hier… TRUE   188.     6   183.
## # … with 101 more rows, and 1 more variable: angle <dbl>
…
