heirarchical clustering | Integrated Bioanalytics
…
There is more that we can do with distance matrices though, lots more. Let’s start by looking at an example of hierarchical clustering. For this, we just need to tell runMatrixAnalysis() to use analysis = "hclust":

AK_lakes_clustered <- runMatrixAnalysis(
    data = alaska_lake_data,
    analysis = "hclust",
    column_w_names_of_multiple_analytes = "element",
    column_w_values_for_multiple_analytes = "mg_per_L",
    columns_w_values_for_single_analyte = c("water_temp", "pH"),
    columns_w_additional_analyte_info = "element_type",
    columns_w_sample_ID_info = c("lake", "park"),
    na_replacement = "mean"
)
AK_lakes_clustered
## # A tibble: 39 × 26
##    sample_unique_ID   lake  park  parent  node branch.length
##    <chr>              <chr> <chr>  <int> <int>         <dbl>
##  1 Devil_Mountain_La… Devi… BELA      33     1          8.12
##  2 Imuruk_Lake_BELA   Imur… BELA      32     2          4.81
##  3 Kuzitrin_Lake_BELA Kuzi… BELA      37     3          3.01
##  4 Lava_Lake_BELA     Lava… BELA      38     4          2.97
##  5 North_Killeak_Lak… Nort… BELA      21     5        254.  
##  6 White_Fish_Lake_B… Whit… BELA      22     6         80.9 
##  7 Iniakuk_Lake_GAAR  Inia… GAAR      29     7          3.60
##  8 Kurupa_Lake_GAAR   Kuru… GAAR      31     8          8.57
##  9 Lake_Matcharak_GA… Lake… GAAR      29     9          3.60
## 10 Lake_Selby_GAAR    Lake… GAAR      30    10          4.80
## # ℹ 29 more rows
## # ℹ 20 more variables: label <chr>, isTip <lgl>, x <dbl>,
## #   y <dbl>, branch <dbl>, angle <dbl>, bootstrap <dbl>,
## #   water_temp <dbl>, pH <dbl>, C <dbl>, N <dbl>, P <dbl>,
## #   Cl <dbl>, S <dbl>, F <dbl>, Br <dbl>, Na <dbl>,
## #   K <dbl>, Ca <dbl>, Mg <dbl>
…
