k-means | Integrated Bioanalytics
…
solvents_pca_kmeans
## # A tibble: 32 × 15
##    sample_unique_ID         solvent formula miscible_with_w…
##    <chr>                    <chr>   <chr>   <lgl>           
##  1 acetic_acid_C2H4O2_TRUE… acetic… C2H4O2  TRUE            
##  2 acetone_C3H6O_TRUE_67-6… acetone C3H6O   TRUE            
##  3 acetonitrile_C2H3N_TRUE… aceton… C2H3N   TRUE            
##  4 benzene_C6H6_FALSE_71-4… benzene C6H6    FALSE           
##  5 benzonitrile_C7H5N_FALS… benzon… C7H5N   FALSE           
##  6 1-butanol_C4H10O_FALSE_… 1-buta… C4H10O  FALSE           
##  7 2-butanone_C4H8O_FALSE_… 2-buta… C4H8O   FALSE           
##  8 carbon_disulfide_CS2_FA… carbon… CS2     FALSE           
##  9 carbon_tetrachloride_CC… carbon… CCl4    FALSE           
## 10 chlorobenzene_C6H5Cl_FA… chloro… C6H5Cl  FALSE           
## # … with 22 more rows, and 11 more variables:
## #   CAS_number <chr>, category <chr>, Dim.1 <dbl>,
## #   Dim.2 <dbl>, kmeans_cluster <chr>, boiling_point <dbl>,
## #   melting_point <dbl>, density <dbl>,
## #   relative_polarity <dbl>, formula_weight <dbl>,
## #   refractive_index <dbl>
…
solvents_pca_kmeans_elbow
## # A tibble: 31 × 2
##    cluster_number variance_within_cluster
##             <dbl>                   <dbl>
##  1              1                   186. 
##  2              2                   128. 
##  3              3                    99.1
##  4              4                    73.6
##  5              5                    62.5
##  6              6                    51.8
##  7              7                    42.8
##  8              8                    36.4
##  9              9                    31.7
## 10             10                    27.8
## # … with 21 more rows
…
