numerical models | Integrated Bioanalytics
…
rfc <- buildModel2(
  data = metabolomics_data[c(1:34, 41:93),],
  model_type = "random_forest_classification",
  input_variables = colnames(metabolomics_data)[3:126],
  output_variable = "patient_status",
  optimization_parameters = list(
    n_vars_tried_at_split = seq(5,50,5),
    n_trees = seq(10,100,10),
    min_leaf_size = seq(1,3,1)
  )
)
rfc$metrics %>% arrange(desc(mean))
## # A tibble: 300 × 9
##    n_vars_tried_at_split n_trees min_n .metric  .estimator
##                    <dbl>   <dbl> <dbl> <chr>    <chr>     
##  1                    40      10     1 accuracy binary    
##  2                    40      60     3 accuracy binary    
##  3                    50      50     2 accuracy binary    
##  4                    40      20     2 accuracy binary    
##  5                    30     100     1 accuracy binary    
##  6                    35      50     2 accuracy binary    
##  7                    15      20     3 accuracy binary    
##  8                    50     100     3 accuracy binary    
##  9                    25      10     1 accuracy binary    
## 10                    30      20     1 accuracy binary    
## # ℹ 290 more rows
## # ℹ 4 more variables: mean <dbl>,
## #   fold_cross_validation <int>, std_err <dbl>,
## #   .config <chr>
…
