phylogenies | Integrated Bioanalytics
…
Another convenient fucntion is ggplot’s fortify. This will convert your phylo object into a data frame:

test_tree_big_fortified <- fortify(test_tree_big)
test_tree_big_fortified
## # A tibble: 101 × 9
##    parent  node branch.length label isTip     x     y branch
##     <int> <int>         <dbl> <chr> <lgl> <dbl> <dbl>  <dbl>
##  1     54     1          83.0 Wolf… TRUE   188.     1   147.
##  2     54     2          83.0 Spat… TRUE   188.     2   147.
##  3     55     3         138.  Dios… TRUE   188.     3   120.
##  4     58     4          42.7 Bulb… TRUE   188.     5   167.
##  5     58     5          42.7 Ober… TRUE   188.     6   167.
##  6     59     6          32.0 Poma… TRUE   188.     7   172.
##  7     59     7          32.0 Teli… TRUE   188.     8   172.
##  8     56     8         135.  Cala… TRUE   188.     4   121.
##  9     61     9         147.  Pepe… TRUE   188.     9   115.
## 10     62    10         121.  Endl… TRUE   188.    10   128.
## # ℹ 91 more rows
## # ℹ 1 more variable: angle <dbl>

ggtree can still plot this dataframe, and it allows metadata to be stored in a human readable format by using mutating joins (explained below). This metadata can be plotted with standard ggplot geoms, and these dataframes can also conveniently be saved as .csv files:

## Note that "plant_species" comes with the phylochemistry source.

test_tree_big_fortified_w_data <- left_join(test_tree_big_fortified, plant_species, by = c("label" = "Genus_species"))

test_tree_big_fortified_w_data
## # A tibble: 101 × 14
##    parent  node branch.length label isTip     x     y branch
##     <int> <int>         <dbl> <chr> <lgl> <dbl> <dbl>  <dbl>
##  1     54     1          83.0 Wolf… TRUE   188.     1   147.
##  2     54     2          83.0 Spat… TRUE   188.     2   147.
##  3     55     3         138.  Dios… TRUE   188.     3   120.
##  4     58     4          42.7 Bulb… TRUE   188.     5   167.
##  5     58     5          42.7 Ober… TRUE   188.     6   167.
##  6     59     6          32.0 Poma… TRUE   188.     7   172.
##  7     59     7          32.0 Teli… TRUE   188.     8   172.
##  8     56     8         135.  Cala… TRUE   188.     4   121.
##  9     61     9         147.  Pepe… TRUE   188.     9   115.
## 10     62    10         121.  Endl… TRUE   188.    10   128.
## # ℹ 91 more rows
## # ℹ 6 more variables: angle <dbl>, Phylum <chr>,
## #   Order <chr>, Family <chr>, Genus <chr>, species <chr>
…
