phylogenetic analyses | Integrated Bioanalytics
…
runPhylogeneticAnalyses(
    traits = pivot_longer(chemical_blooms[,1:4], cols = c(3:4), names_to = "trait", values_to = "value"),
    column_w_names_of_tiplabels = "label",
    column_w_names_of_traits = "trait",
    column_w_values_for_traits = "value",
    tree = chemical_bloom_tree
)
## Joining with `by = join_by(trait)`
## # A tibble: 310 × 17
##    parent  node branch.length label isTip     x     y branch
##     <int> <dbl>         <dbl> <chr> <lgl> <dbl> <dbl>  <dbl>
##  1     80     1         290.  Gink… TRUE   352.     1   207.
##  2     80     1         290.  Gink… TRUE   352.     1   207.
##  3     81     2         267.  Pice… TRUE   352.     2   219.
##  4     81     2         267.  Pice… TRUE   352.     2   219.
##  5     81     3         267.  Cupr… TRUE   352.     3   219.
##  6     81     3         267.  Cupr… TRUE   352.     3   219.
##  7     84     4         135.  Eryt… TRUE   352.     5   285.
##  8     84     4         135.  Eryt… TRUE   352.     5   285.
##  9     86     5          16.2 Iris… TRUE   352.     6   344.
## 10     86     5          16.2 Iris… TRUE   352.     6   344.
## # ℹ 300 more rows
## # ℹ 9 more variables: angle <dbl>, trait <chr>,
## #   value <dbl>, trait_type <chr>,
## #   phylogenetic_signal_k_value <dbl>,
## #   phylogenetic_signal_k_p_value <dbl>,
## #   phylogenetic_signal_lambda_value <dbl>,
## #   phylogenetic_signal_lambda_p_value <dbl>, pic <dbl>
…
