Chapter 10 Chemometrics 1 | R For Chemists
…
In order for runMatrixAnalysis() to work, you will also need to install ape and ggtree. Use the code below to do that:

install.packages("ape", repos = "https://cloud.r-project.org", quiet = FALSE)

if (!requireNamespace("BiocManager", quietly = TRUE))
install.packages("BiocManager")

BiocManager::install("ggtree")

With the requisite packages installed, we can use the template for runMatrixAnalysis() to begin our command. In order to use the template, it is critical that we think about our data in terms of samples and analytes. Let’s consider our Alaksa lakes data set:

library(tidyverse)
AK_lakes <- read_csv("https://thebustalab.github.io/R_For_Chemists/sample_data/alaska_lake_data.csv")
AK_lakes
## # A tibble: 220 x 7
##    lake                park  water_temp    pH element mg_per_L element_type
##    <chr>               <chr>      <dbl> <dbl> <chr>      <dbl> <chr>       
##  1 Devil_Mountain_Lake BELA        6.46  7.69 C          3.4   bound       
##  2 Devil_Mountain_Lake BELA        6.46  7.69 N          0.028 bound       
##  3 Devil_Mountain_Lake BELA        6.46  7.69 P          0     bound       
##  4 Devil_Mountain_Lake BELA        6.46  7.69 Cl        10.4   free        
##  5 Devil_Mountain_Lake BELA        6.46  7.69 S          0.62  free        
##  6 Devil_Mountain_Lake BELA        6.46  7.69 F          0.04  free        
##  7 Devil_Mountain_Lake BELA        6.46  7.69 Br         0.02  free        
##  8 Devil_Mountain_Lake BELA        6.46  7.69 Na         8.92  free        
##  9 Devil_Mountain_Lake BELA        6.46  7.69 K          1.2   free        
## 10 Devil_Mountain_Lake BELA        6.46  7.69 Ca         5.73  free        
## # … with 210 more rows
…
    analysis = "hclust",

    column_w_names_of_multiple_analytes = "element",
    column_w_values_for_multiple_analytes = "mg_per_L",
    
    columns_w_values_for_single_analyte = c("water_temp", "pH"),
    
    columns_w_additional_analyte_info = "element_type",

    columns_w_sample_ID_info = c("lake", "park")

)
AK_lakes_clustered
## # A tibble: 39 x 25
##    lake  park  sample_unique_ID parent  node branch.length label isTip
##    <chr> <chr> <chr>             <int> <int>         <dbl> <chr> <lgl>
##  1 Devi… BELA  Devil_Mountain_…     33     1          7.25 Devi… TRUE 
##  2 Imur… BELA  Imuruk_Lake_BELA     32     2          4.91 Imur… TRUE 
##  3 Kuzi… BELA  Kuzitrin_Lake_B…     36     3          3.27 Kuzi… TRUE 
##  4 Lava… BELA  Lava_Lake_BELA       35     4          3.02 Lava… TRUE 
##  5 Nort… BELA  North_Killeak_L…     21     5        204.   Nort… TRUE 
##  6 Whit… BELA  White_Fish_Lake…     22     6         65.2  Whit… TRUE 
##  7 Inia… GAAR  Iniakuk_Lake_GA…     29     7          3.60 Inia… TRUE 
##  8 Kuru… GAAR  Kurupa_Lake_GAAR     31     8          8.57 Kuru… TRUE 
##  9 Lake… GAAR  Lake_Matcharak_…     29     9          3.60 Lake… TRUE 
## 10 Lake… GAAR  Lake_Selby_GAAR      30    10          5.24 Lake… TRUE 
## # … with 29 more rows, and 17 more variables: x <dbl>, y <dbl>,
## #   branch <dbl>, angle <dbl>, water_temp <dbl>, pH <dbl>, C <dbl>,
## #   N <dbl>, P <dbl>, Cl <dbl>, S <dbl>, F <dbl>, Br <dbl>, Na <dbl>,
## #   K <dbl>, Ca <dbl>, Mg <dbl>
…
