C FAQ | R For Chemists
…
##   address = col_character(),
##   tree_loc = col_character(),
##   pit_type = col_character(),
##   soil_lvl = col_character(),
##   status = col_character(),
##   spc_latin = col_character(),
##   spc_common = col_character(),
##   trunk_dmg = col_character(),
##   zipcode = col_double(),
##   boroname = col_character(),
##   latitude = col_double(),
##   longitude = col_double()
## )
NY_trees
## # A tibble: 378,762 x 14
##    tree_height tree_diameter address tree_loc pit_type soil_lvl status
##          <dbl>         <dbl> <chr>   <chr>    <chr>    <chr>    <chr> 
##  1        21.1             6 1139 5… Front    Sidewal… Level    Good  
##  2        59.0             6 2220 B… Across   Sidewal… Level    Good  
##  3        92.4            13 2254 B… Across   Sidewal… Level    Good  
##  4        50.2            15 2332 B… Across   Sidewal… Level    Good  
##  5        95.0            21 2361 E… Front    Sidewal… Level    Poor  
##  6        67.5            19 2409 E… Front    Continu… Level    Good  
##  7        75.3            11 1481 E… Front    Lawn     Level    Excel…
##  8        27.9             7 1129 5… Front    Sidewal… Level    Good  
##  9       111.             26 2076 E… Across   Sidewal… Level    Excel…
## 10        83.9            20 2025 E… Front    Sidewal… Level    Excel…
## # … with 378,752 more rows, and 7 more variables: spc_latin <chr>,
## #   spc_common <chr>, trunk_dmg <chr>, zipcode <dbl>, boroname <chr>,
## #   latitude <dbl>, longitude <dbl>

tree_data_status <- group_by(.data = NY_trees, status)
tree_data_status
## # A tibble: 378,762 x 14
##    tree_height tree_diameter address tree_loc pit_type soil_lvl status
##          <dbl>         <dbl> <chr>   <chr>    <chr>    <chr>    <chr> 
##  1        21.1             6 1139 5… Front    Sidewal… Level    Good  
##  2        59.0             6 2220 B… Across   Sidewal… Level    Good  
##  3        92.4            13 2254 B… Across   Sidewal… Level    Good  
##  4        50.2            15 2332 B… Across   Sidewal… Level    Good  
##  5        95.0            21 2361 E… Front    Sidewal… Level    Poor  
##  6        67.5            19 2409 E… Front    Continu… Level    Good  
##  7        75.3            11 1481 E… Front    Lawn     Level    Excel…
##  8        27.9             7 1129 5… Front    Sidewal… Level    Good  
##  9       111.             26 2076 E… Across   Sidewal… Level    Excel…
## 10        83.9            20 2025 E… Front    Sidewal… Level    Excel…
## # … with 378,752 more rows, and 7 more variables: spc_latin <chr>,
## #   spc_common <chr>, trunk_dmg <chr>, zipcode <dbl>, boroname <chr>,
## #   latitude <dbl>, longitude <dbl>
…
