A Functions | R For Chemists
…
A.3.7 case_when()

(a dplyr function - part of the tidyverse)

# Classify the fuel efficiency of the cars in the mtcars data set
efficiency <- mutate(
  mtcars,
  fuel_efficient = case_when(
    mpg <= 15 ~ "Bad",
    mpg > 15 & mpg < 25 ~ "ok", 
    mpg >= 25 ~ "Good"
  )
)
efficiency
## # A tibble: 32 x 12
##      mpg   cyl  disp    hp  drat    wt  qsec    vs    am  gear  carb
##    <dbl> <dbl> <dbl> <dbl> <dbl> <dbl> <dbl> <dbl> <dbl> <dbl> <dbl>
##  1  21       6  160    110  3.9   2.62  16.5     0     1     4     4
##  2  21       6  160    110  3.9   2.88  17.0     0     1     4     4
##  3  22.8     4  108     93  3.85  2.32  18.6     1     1     4     1
##  4  21.4     6  258    110  3.08  3.22  19.4     1     0     3     1
##  5  18.7     8  360    175  3.15  3.44  17.0     0     0     3     2
##  6  18.1     6  225    105  2.76  3.46  20.2     1     0     3     1
##  7  14.3     8  360    245  3.21  3.57  15.8     0     0     3     4
##  8  24.4     4  147.    62  3.69  3.19  20       1     0     4     2
##  9  22.8     4  141.    95  3.92  3.15  22.9     1     0     4     2
## 10  19.2     6  168.   123  3.92  3.44  18.3     1     0     4     4
## # … with 22 more rows, and 1 more variable: fuel_efficient <chr>
…
table(DML$element_type)[2] / sum(table(DML$element_type)) * 100
##     free 
## 72.72727

A.5.4 weighted.mean()

(from the stats package)

Suppose we want to calculate mean abundance of pyruvate in patients with kidney disease versus patients that are healthy.

First, let’s just make the data set smaller and easier to see:

ckd_data_pyruvate <- ckd_data[,1:3]
ckd_data_pyruvate
## # A tibble: 93 x 3
##    patient_number patient_status Pyruvate
##             <dbl> <chr>             <dbl>
##  1             20 healthy            14.2
##  2             24 healthy            14.2
##  3             29 healthy            13.9
##  4             52 healthy            13.8
##  5             54 healthy            13.7
##  6             56 healthy            13.4
##  7             57 healthy            13.6
##  8             58 healthy            13.7
##  9             59 healthy            14.5
## 10             60 healthy            13.6
## # … with 83 more rows
…
This means that the weights should be 37/(37+56) and 56/(37+56)

Now, let’s assign those weights to each column:

ckd_data_pyruvate <- mutate(
  ckd_data_pyruvate, 
  weight = case_when(
    patient_status == "healthy" ~ 56/(37+56), patient_status == "kidney_disease" ~ 37/(37+56)
  )
)
ckd_data_pyruvate
## # A tibble: 93 x 4
##    patient_number patient_status Pyruvate weight
##             <dbl> <chr>             <dbl>  <dbl>
##  1             20 healthy            14.2  0.602
##  2             24 healthy            14.2  0.602
##  3             29 healthy            13.9  0.602
##  4             52 healthy            13.8  0.602
##  5             54 healthy            13.7  0.602
##  6             56 healthy            13.4  0.602
##  7             57 healthy            13.6  0.602
##  8             58 healthy            13.7  0.602
##  9             59 healthy            14.5  0.602
## 10             60 healthy            13.6  0.602
## # … with 83 more rows
…
