Chapter 14 k-means | R For Chemists
…
solvents_pca_kmeans
## # A tibble: 32 x 15
##    solvent formula miscible_with_w… CAS_number category sample_unique_ID
##    <chr>   <chr>   <lgl>            <chr>      <chr>    <chr>           
##  1 acetic… C2H4O2  TRUE             64-19-7    oxygen-… acetic_acid_C2H…
##  2 acetone C3H6O   TRUE             67-64-1    oxygen-… acetone_C3H6O_ …
##  3 aceton… C2H3N   TRUE             75-05-8    nitroge… acetonitrile_C2…
##  4 benzene C6H6    FALSE            71-43-2    hydroca… benzene_C6H6_FA…
##  5 benzon… C7H5N   FALSE            100-47-0   nitroge… benzonitrile_C7…
##  6 1-buta… C4H10O  FALSE            71-36-3    alcohol  1-butanol_C4H10…
##  7 2-buta… C4H8O   FALSE            78-93-3    oxygen-… 2-butanone_C4H8…
##  8 carbon… CS2     FALSE            75-15-0    sulfide  carbon_disulfid…
##  9 carbon… CCl4    FALSE            56-23-5    chlorin… carbon_tetrachl…
## 10 chloro… C6H5Cl  FALSE            108-90-7   chlorin… chlorobenzene_C…
## # … with 22 more rows, and 9 more variables: Dim.1 <dbl>, Dim.2 <dbl>,
## #   kmeans_cluster <fct>, boiling_point <dbl>, melting_point <dbl>,
## #   density <dbl>, relative_polarity <dbl>, formula_weight <dbl>,
## #   refractive_index <dbl>
…
solvents_pca_kmeans_elbow
## # A tibble: 31 x 2
##    cluster_number variance_within_cluster
##             <dbl>                   <dbl>
##  1              1                 142804.
##  2              2                  67355.
##  3              3                  49545.
##  4              4                  38964.
##  5              5                  30702.
##  6              6                  25212.
##  7              7                  20188.
##  8              8                  16508.
##  9              9                  14428.
## 10             10                  12265.
## # … with 21 more rows
…
