Chapter 3 R Basics 1 | R For Chemists
…
The stuff inside the parentheses are the details of how you want the function to perform its action: run_this_analysis(on_this_data)

Let’s illustrate this with an example. We’re going to use a function from the tidyverse called read_csv. This means we need to first load the tidyverse. We’ll use it to read some data from a path on our computer. This is a link to the original, untidied version of the data, but you can download a tidied version of the data by clicking here. We’re going to import that tidied version (not the original, untidied version) using the read_csv command. We’ll run read_csv("<path_to_your_data>"). Note the use of QUOTES ""! Those are necessary. Also make sure your path uses the appropriate direction of slashes for your operating system.

library(tidyverse)
read_csv("https://thebustalab.github.io/R_For_Chemists/sample_data/algae_data.csv")
## Parsed with column specification:
## cols(
##   replicate = col_double(),
##   algae_strain = col_character(),
##   harvesting_regime = col_character(),
##   chemical_species = col_character(),
##   abundance = col_double()
## )
## # A tibble: 180 x 5
##    replicate algae_strain harvesting_regime chemical_species      abundance
##        <dbl> <chr>        <chr>             <chr>                     <dbl>
##  1         1 Tsv1         Heavy             FAs                       520. 
##  2         1 Tsv1         Heavy             saturated_Fas             123. 
##  3         1 Tsv1         Heavy             omega_3_polyunsatura…     186. 
##  4         1 Tsv1         Heavy             monounsaturated_Fas        28.4
##  5         1 Tsv1         Heavy             polyunsaturated_Fas       369. 
##  6         1 Tsv1         Heavy             omega_6_polyunsatura…     183. 
##  7         1 Tsv1         Heavy             lysine                     84.1
##  8         1 Tsv1         Heavy             methionine                 24.1
##  9         1 Tsv1         Heavy             essential_Aas             692. 
## 10         1 Tsv1         Heavy             non_essential_Aas         919. 
## # … with 170 more rows
…
# Alternative:
# algae_chemistry <- readCSV()

Now we have an object called algae_chemistry. We can examine the contents of that object by typing its name. For example:

algae_chemistry
## # A tibble: 180 x 5
##    replicate algae_strain harvesting_regime chemical_species      abundance
##        <dbl> <chr>        <chr>             <chr>                     <dbl>
##  1         1 Tsv1         Heavy             FAs                       520. 
##  2         1 Tsv1         Heavy             saturated_Fas             123. 
##  3         1 Tsv1         Heavy             omega_3_polyunsatura…     186. 
##  4         1 Tsv1         Heavy             monounsaturated_Fas        28.4
##  5         1 Tsv1         Heavy             polyunsaturated_Fas       369. 
##  6         1 Tsv1         Heavy             omega_6_polyunsatura…     183. 
##  7         1 Tsv1         Heavy             lysine                     84.1
##  8         1 Tsv1         Heavy             methionine                 24.1
##  9         1 Tsv1         Heavy             essential_Aas             692. 
## 10         1 Tsv1         Heavy             non_essential_Aas         919. 
## # … with 170 more rows
…
