Chapter 8 Summary Statistics | R For Chemists
…
##   address = col_character(),
##   tree_loc = col_character(),
##   pit_type = col_character(),
##   soil_lvl = col_character(),
##   status = col_character(),
##   spc_latin = col_character(),
##   spc_common = col_character(),
##   trunk_dmg = col_character(),
##   zipcode = col_double(),
##   boroname = col_character(),
##   latitude = col_double(),
##   longitude = col_double()
## )
ny_trees
## # A tibble: 378,762 x 14
##    tree_height tree_diameter address tree_loc pit_type soil_lvl status
##          <dbl>         <dbl> <chr>   <chr>    <chr>    <chr>    <chr> 
##  1        21.1             6 1139 5… Front    Sidewal… Level    Good  
##  2        59.0             6 2220 B… Across   Sidewal… Level    Good  
##  3        92.4            13 2254 B… Across   Sidewal… Level    Good  
##  4        50.2            15 2332 B… Across   Sidewal… Level    Good  
##  5        95.0            21 2361 E… Front    Sidewal… Level    Poor  
##  6        67.5            19 2409 E… Front    Continu… Level    Good  
##  7        75.3            11 1481 E… Front    Lawn     Level    Excel…
##  8        27.9             7 1129 5… Front    Sidewal… Level    Good  
##  9       111.             26 2076 E… Across   Sidewal… Level    Excel…
## 10        83.9            20 2025 E… Front    Sidewal… Level    Excel…
## # … with 378,752 more rows, and 7 more variables: spc_latin <chr>,
## #   spc_common <chr>, trunk_dmg <chr>, zipcode <dbl>, boroname <chr>,
## #   latitude <dbl>, longitude <dbl>
…
Cool! Just like that we’ve found (and visualized) the average and standard deviation of tree heights, by species, in NYC. But it doesn’t stop there. We can use group_by() and summarize() on multiple variables (i.e. more groups). We can do this to examine the properties of each tree species in each NYC borough. Let’s check it out.

ny_trees_by_spc_boro <- group_by(.data = ny_trees, spc_latin, boroname)
ny_trees_by_spc_boro_summ <- summarize(.data = ny_trees_by_spc_boro, mean_diam = mean(tree_diameter), stdev_diam = sd(tree_diameter))
ny_trees_by_spc_boro_summ
## # A tibble: 48 x 4
##    spc_latin        boroname  mean_diam stdev_diam
##    <chr>            <chr>         <dbl>      <dbl>
##  1 ACER PLATANOIDES Bronx         13.9        6.74
##  2 ACER PLATANOIDES Brooklyn      15.4       14.9 
##  3 ACER PLATANOIDES Manhattan     11.6        8.45
##  4 ACER PLATANOIDES Queens        15.1       12.9 
##  5 ACER RUBRUM      Bronx         11.4        7.88
##  6 ACER RUBRUM      Brooklyn      10.5        7.41
##  7 ACER RUBRUM      Manhattan      6.63       4.23
##  8 ACER RUBRUM      Queens        14.1        8.36
##  9 ACER SACCHARINUM Bronx         19.7       10.5 
## 10 ACER SACCHARINUM Brooklyn      22.2       10.1 
## # … with 38 more rows
…
While this format is very nice for filling in my hand (such as in a lab notebook or similar), it does not groove with ggplot and other tidyverse functions very well. We need to convert it into a long-style table. This is done using pivot_longer(). You can think of this function as transforming both your data’s column names (or some of the column names) and your data matrix’s values (in this case, the measurements) each into their own variables (i.e. columns). We can do this for our fatty acid dataset using the command below. In it, we specify what data we want to transform (data = FAs), we need to tell it what columns we want to transform (cols = 2:11), what we want the new variable that contains column names to be called (names_to = "plant_species") and what we want the new variable that contains matrix values to be called (values_to = "relative_abundance"). All together now:

pivot_longer(data = FAs, cols = 2:11, names_to = "plant_species", values_to = "relative_abundance")
## # A tibble: 70 x 3
##    fatty_acid        plant_species           relative_abundance
##    <chr>             <chr>                                <dbl>
##  1 Hexadecanoic acid Agonandra_brasiliensis                 3.4
##  2 Hexadecanoic acid Agonandra_silvatica                    1  
##  3 Hexadecanoic acid Agonandra_excelsa                      1.2
##  4 Hexadecanoic acid Heisteria_silvianii                    2.9
##  5 Hexadecanoic acid Malania_oleifera                       0.7
##  6 Hexadecanoic acid Ximenia_americana                      3.3
##  7 Hexadecanoic acid Ongokea_gore                           1  
##  8 Hexadecanoic acid Comandra_pallida                       2.3
##  9 Hexadecanoic acid Buckleya_distichophylla                1.6
## 10 Hexadecanoic acid Nuytsia_floribunda                     3.8
## # … with 60 more rows
…
