…
Now we've got a new object called `new_object`, and inside of it is the number 1. To look at what's inside an object, we can simply type the name of the object into the console:


```r
new_object
## [1] 1
```

Easy! Let's look at one of the objects that comes with our class code base. What are the dimensions of the "algae_data" data set?


```r
algae_data
## # A tibble: 180 × 5
##    replicate algae_strain harvesting_regime chemical_species
##        <dbl> <chr>        <chr>             <chr>           
##  1         1 Tsv1         Heavy             FAs             
##  2         1 Tsv1         Heavy             saturated_Fas   
##  3         1 Tsv1         Heavy             omega_3_polyuns…
##  4         1 Tsv1         Heavy             monounsaturated…
##  5         1 Tsv1         Heavy             polyunsaturated…
##  6         1 Tsv1         Heavy             omega_6_polyuns…
##  7         1 Tsv1         Heavy             lysine          
##  8         1 Tsv1         Heavy             methionine      
##  9         1 Tsv1         Heavy             essential_Aas   
## 10         1 Tsv1         Heavy             non_essential_A…
## # … with 170 more rows, and 1 more variable:
## #   abundance <dbl>
```
…
While this format is very nice for filling in my hand (such as in a lab notebook or similar), it does not groove with ggplot and other `tidyverse` functions very well. We need to convert it into a **long-style table**. This is done using `pivot_longer()`. You can think of this function as transforming both your data's column names (or some of the column names) and your data matrix's values (in this case, the measurements) each into their own variables (i.e. columns). We can do this for our fatty acid dataset using the command below. In it, we specify what data we want to transform (`data = fadb_sample`), we need to tell it what columns we want to transform (`cols = 2:11`), what we want the new variable that contains column names to be called (`names_to = "plant_species"`) and what we want the new variable that contains matrix values to be called (`values_to = "relative_abundance"`). All together now:


```r
pivot_longer(data = fadb_sample, cols = 2:11, names_to = "plant_species", values_to = "relative_abundance")
## # A tibble: 70 × 3
##    fatty_acid        plant_species           relative_abunda…
##    <chr>             <chr>                              <dbl>
##  1 Hexadecanoic acid Agonandra_brasiliensis               3.4
##  2 Hexadecanoic acid Agonandra_silvatica                  1  
##  3 Hexadecanoic acid Agonandra_excelsa                    1.2
##  4 Hexadecanoic acid Heisteria_silvianii                  2.9
##  5 Hexadecanoic acid Malania_oleifera                     0.7
##  6 Hexadecanoic acid Ximenia_americana                    3.3
##  7 Hexadecanoic acid Ongokea_gore                         1  
##  8 Hexadecanoic acid Comandra_pallida                     2.3
##  9 Hexadecanoic acid Buckleya_distichophylla              1.6
## 10 Hexadecanoic acid Nuytsia_floribunda                   3.8
## # … with 60 more rows
```
…
Neat! Another way to think about the pipe:



The pipe will become more important as our analyses become more sophisticated, which happens very quickly when we start working with summary statistics, as we shall now see...

## summary statistics

So far, we have been plotting raw data. This is well and good, but it is not always suitable. Often we have scientific questions that cannot be answered by looking at raw data alone, or sometimes there is too much raw data to plot. For this, we need summary statistics - things like averages, standard deviations, and so on. While these metrics can be computed in Excel, programming such can be time consuming, especially for group statistics. Consider the example below, which uses the `ny_trees` dataset. The NY Trees dataset contains information on nearly half a million trees in New York City (this is after considerable filtering and simplification):


```r
ny_trees
## # A tibble: 378,762 × 14
##    tree_height tree_diameter address      tree_loc pit_type 
##          <dbl>         <dbl> <chr>        <chr>    <chr>    
##  1        21.1             6 1139 57 STR… Front    Sidewalk…
##  2        59.0             6 2220 BERGEN… Across   Sidewalk…
##  3        92.4            13 2254 BERGEN… Across   Sidewalk…
##  4        50.2            15 2332 BERGEN… Across   Sidewalk…
##  5        95.0            21 2361 EAST  … Front    Sidewalk…
##  6        67.5            19 2409 EAST  … Front    Continuo…
##  7        75.3            11 1481 EAST  … Front    Lawn     
##  8        27.9             7 1129 57 STR… Front    Sidewalk…
##  9       111.             26 2076 EAST  … Across   Sidewalk…
## 10        83.9            20 2025 EAST  … Front    Sidewalk…
## # … with 378,752 more rows, and 9 more variables:
## #   soil_lvl <chr>, status <chr>, spc_latin <chr>,
## #   spc_common <chr>, trunk_dmg <chr>, zipcode <dbl>,
## #   boroname <chr>, latitude <dbl>, longitude <dbl>
```
…
<img src="index_files/figure-epub3/unnamed-chunk-76-1.png" style="display: block; margin: auto;" />

Cool! Just like that, we've found (and visualized) the average and standard deviation of tree heights, by species, in NYC. But it doesn't stop there. We can use `group_by()` and `summarize()` on multiple variables (i.e. more groups). We can do this to examine the properties of each tree species in each NYC borough. Let's check it out:


```r
ny_trees %>%
  group_by(spc_latin, boroname) %>%
  summarize(
    mean_diam = mean(tree_diameter),
    stdev_diam = sd(tree_diameter)
  ) -> ny_trees_by_spc_boro_summ
## `summarise()` has grouped output by 'spc_latin'. You can override using the `.groups` argument.
ny_trees_by_spc_boro_summ
## # A tibble: 48 × 4
## # Groups:   spc_latin [12]
##    spc_latin        boroname  mean_diam stdev_diam
##    <chr>            <chr>         <dbl>      <dbl>
##  1 ACER PLATANOIDES Bronx         13.9        6.74
##  2 ACER PLATANOIDES Brooklyn      15.4       14.9 
##  3 ACER PLATANOIDES Manhattan     11.6        8.45
##  4 ACER PLATANOIDES Queens        15.1       12.9 
##  5 ACER RUBRUM      Bronx         11.4        7.88
##  6 ACER RUBRUM      Brooklyn      10.5        7.41
##  7 ACER RUBRUM      Manhattan      6.63       4.23
##  8 ACER RUBRUM      Queens        14.1        8.36
##  9 ACER SACCHARINUM Bronx         19.7       10.5 
## 10 ACER SACCHARINUM Brooklyn      22.2       10.1 
## # … with 38 more rows
```
…
<!-- start clustering -->
# clustering

## theory

"Which of my samples are most closely related?"

So far we have been looking at how to plot raw data, as well as data that has been summarize across samples. This is important stuff and very useful. However, we often have questions about how samples in our datasets relate to one another. For example: in the Alaska lakes dataset, which lake is most similar, chemically speaking, to Lake Narvakrak? Answering this requires calculating numeric distances between samples based on their chemical properties. For this, and other questions, we need to use matrix analyses. For this, we will use `runMatrixAnalysis()`, a function that is loaded into your R Session when you run the source() command.

Matrix analyses can be a bit difficult to set up. There are two things that we can do to help us with this: (i) we will use a template for `runMatrixAnalysis()` (see below) and (ii) it is *critical* that we think about our data in terms of **samples** and **analytes**. Let's consider our Alaska lakes data set:


```r
alaska_lake_data
## # A tibble: 220 × 7
##    lake                park  water_temp    pH element mg_per_L
##    <chr>               <chr>      <dbl> <dbl> <chr>      <dbl>
##  1 Devil_Mountain_Lake BELA        6.46  7.69 C          3.4  
##  2 Devil_Mountain_Lake BELA        6.46  7.69 N          0.028
##  3 Devil_Mountain_Lake BELA        6.46  7.69 P          0    
##  4 Devil_Mountain_Lake BELA        6.46  7.69 Cl        10.4  
##  5 Devil_Mountain_Lake BELA        6.46  7.69 S          0.62 
##  6 Devil_Mountain_Lake BELA        6.46  7.69 F          0.04 
##  7 Devil_Mountain_Lake BELA        6.46  7.69 Br         0.02 
##  8 Devil_Mountain_Lake BELA        6.46  7.69 Na         8.92 
##  9 Devil_Mountain_Lake BELA        6.46  7.69 K          1.2  
## 10 Devil_Mountain_Lake BELA        6.46  7.69 Ca         5.73 
## # … with 210 more rows, and 1 more variable:
## #   element_type <chr>
```
…
    analysis = "hclust",

    column_w_names_of_multiple_analytes = "element",
    column_w_values_for_multiple_analytes = "mg_per_L",
    
    columns_w_values_for_single_analyte = c("water_temp", "pH"),
    
    columns_w_additional_analyte_info = "element_type",

    columns_w_sample_ID_info = c("lake", "park")

)
AK_lakes_clustered
## # A tibble: 39 × 25
##    sample_unique_ID  lake   park  parent  node branch.length
##    <chr>             <chr>  <chr>  <int> <int>         <dbl>
##  1 Devil_Mountain_L… Devil… BELA      33     1          7.25
##  2 Imuruk_Lake_BELA  Imuru… BELA      32     2          4.91
##  3 Kuzitrin_Lake_BE… Kuzit… BELA      36     3          3.27
##  4 Lava_Lake_BELA    Lava_… BELA      35     4          3.02
##  5 North_Killeak_La… North… BELA      21     5        204.  
##  6 White_Fish_Lake_… White… BELA      22     6         65.2 
##  7 Iniakuk_Lake_GAAR Iniak… GAAR      29     7          3.60
##  8 Kurupa_Lake_GAAR  Kurup… GAAR      31     8          8.57
##  9 Lake_Matcharak_G… Lake_… GAAR      29     9          3.60
## 10 Lake_Selby_GAAR   Lake_… GAAR      30    10          5.24
## # … with 29 more rows, and 19 more variables: label <chr>,
## #   isTip <lgl>, x <dbl>, y <dbl>, branch <dbl>,
## #   angle <dbl>, water_temp <dbl>, pH <dbl>, C <dbl>,
## #   N <dbl>, P <dbl>, Cl <dbl>, S <dbl>, F <dbl>, Br <dbl>,
## #   Na <dbl>, K <dbl>, Ca <dbl>, Mg <dbl>
```
…
solvents_pca_kmeans
## # A tibble: 32 × 15
##    sample_unique_ID       solvent   formula miscible_with_w…
##    <chr>                  <chr>     <chr>   <lgl>           
##  1 acetic_acid_C2H4O2_TR… acetic_a… C2H4O2  TRUE            
##  2 acetone_C3H6O_TRUE_67… acetone   C3H6O   TRUE            
##  3 acetonitrile_C2H3N_TR… acetonit… C2H3N   TRUE            
##  4 benzene_C6H6_FALSE_71… benzene   C6H6    FALSE           
##  5 benzonitrile_C7H5N_FA… benzonit… C7H5N   FALSE           
##  6 1-butanol_C4H10O_FALS… 1-butanol C4H10O  FALSE           
##  7 2-butanone_C4H8O_FALS… 2-butano… C4H8O   FALSE           
##  8 carbon_disulfide_CS2_… carbon_d… CS2     FALSE           
##  9 carbon_tetrachloride_… carbon_t… CCl4    FALSE           
## 10 chlorobenzene_C6H5Cl_… chlorobe… C6H5Cl  FALSE           
## # … with 22 more rows, and 11 more variables:
## #   CAS_number <chr>, category <chr>, Dim.1 <dbl>,
## #   Dim.2 <dbl>, kmeans_cluster <chr>, boiling_point <dbl>,
## #   melting_point <dbl>, density <dbl>,
## #   relative_polarity <dbl>, formula_weight <dbl>,
## #   refractive_index <dbl>
```
…
solvents_pca_kmeans_elbow
## # A tibble: 31 × 2
##    cluster_number variance_within_cluster
##             <dbl>                   <dbl>
##  1              1                 142804.
##  2              2                  67355.
##  3              3                  49545.
##  4              4                  38964.
##  5              5                  30702.
##  6              6                  25646.
##  7              7                  20188.
##  8              8                  16508.
##  9              9                  14346.
## 10             10                  12265.
## # … with 21 more rows
```
…
**"Are these two things the same?"**

Often, we want to know if our study subjects contain different amounts of certain analytes. For example, "Does this lake over here contain more potassium than that lake over there?" For this, we need statistical tests. Here, we will have a look at comparing mean values for analyte abundance in situations with two samples and in situations with more than two samples.

I find many of the concepts discussed in this chapter easier to think about with an example in mind. For that, suppose that you are an analytical chemist on Hawaii that is studying the chemistry of the island's aquifers. you have the data set `hawaii_aquifers`. You can see in the output below the structure of the data set - we have 990 measurements of a 9 different analytes in multiple wells that draw on a set of 10 aquifers.


```r
hawaii_aquifers
## # A tibble: 990 × 6
##    aquifer_code well_name      longitude latitude analyte   
##    <chr>        <chr>              <dbl>    <dbl> <chr>     
##  1 aquifer_1    Alewa_Heights…        NA       NA SiO2      
##  2 aquifer_1    Alewa_Heights…        NA       NA Cl        
##  3 aquifer_1    Alewa_Heights…        NA       NA Mg        
##  4 aquifer_1    Alewa_Heights…        NA       NA Na        
##  5 aquifer_1    Alewa_Heights…        NA       NA K         
##  6 aquifer_1    Alewa_Heights…        NA       NA SO4       
##  7 aquifer_1    Alewa_Heights…        NA       NA HCO3      
##  8 aquifer_1    Alewa_Heights…        NA       NA dissolved…
##  9 aquifer_1    Alewa_Heights…        NA       NA Ca        
## 10 aquifer_1    Beretania_Hig…        NA       NA SiO2      
## # … with 980 more rows, and 1 more variable:
## #   abundance <dbl>
…
There are many different types of statistical tests. Below is a flow chart illustrating how it is recommended that statistical tests be used in this course. You can see that there are three regimes of tests: variance and normality tests (blue), parametric tests (green), and non-parametric tests (orange):



When we are comparing means, we need to first determine what kind of statistical tests we can use with our data. If (i) our data can be reasonably modelled by a normal distribution and (ii) the variances about the two means are similar, then we can use the more powerful "parametric" tests (i.e. tests that will be more likely to detect a difference in means, assuming one exists). If one of these criteria are not met, then we need to use less powerful "non-parametric" tests.

We can check our data for normality and similar variances using the Shapiro test and the Levene test. Let's use the `hawaii_aquifers` data as an example, and let's consider only the element potassium:


```r
K_data <- hawaii_aquifers %>%
  filter(analyte == "K")
  K_data
## # A tibble: 110 × 6
##    aquifer_code well_name         longitude latitude analyte
##    <chr>        <chr>                 <dbl>    <dbl> <chr>  
##  1 aquifer_1    Alewa_Heights_Sp…       NA      NA   K      
##  2 aquifer_1    Beretania_High_S…       NA      NA   K      
##  3 aquifer_1    Beretania_Low_Se…       NA      NA   K      
##  4 aquifer_1    Kuliouou_Well         -158.     21.3 K      
##  5 aquifer_1    Manoa_Well_II         -158.     21.3 K      
##  6 aquifer_1    Moanalua_Wells_P…     -158.     21.4 K      
##  7 aquifer_1    Moanalua_Wells_P…     -158.     21.4 K      
##  8 aquifer_1    Moanalua_Wells_P…     -158.     21.4 K      
##  9 aquifer_1    Nuuanu_Aerator_W…     -158.     21.4 K      
## 10 aquifer_1    Palolo_Tunnel         -158.     21.3 K      
## # … with 100 more rows, and 1 more variable:
## #   abundance <dbl>
```

To work with two means, let's just look at aquifers 1 and 6:


```r
K_data_1_2 <- K_data %>%
    filter(aquifer_code %in% c("aquifer_1", "aquifer_6"))

K_data_1_2
## # A tibble: 24 × 6
##    aquifer_code well_name         longitude latitude analyte
##    <chr>        <chr>                 <dbl>    <dbl> <chr>  
##  1 aquifer_1    Alewa_Heights_Sp…       NA      NA   K      
##  2 aquifer_1    Beretania_High_S…       NA      NA   K      
##  3 aquifer_1    Beretania_Low_Se…       NA      NA   K      
##  4 aquifer_1    Kuliouou_Well         -158.     21.3 K      
##  5 aquifer_1    Manoa_Well_II         -158.     21.3 K      
##  6 aquifer_1    Moanalua_Wells_P…     -158.     21.4 K      
##  7 aquifer_1    Moanalua_Wells_P…     -158.     21.4 K      
##  8 aquifer_1    Moanalua_Wells_P…     -158.     21.4 K      
##  9 aquifer_1    Nuuanu_Aerator_W…     -158.     21.4 K      
## 10 aquifer_1    Palolo_Tunnel         -158.     21.3 K      
## # … with 14 more rows, and 1 more variable: abundance <dbl>
…
A p-value of 0.028! This is higher than the value given by the t-test (0.012). That is because the Wilcox test is a less powerful test: it is less likely to detect differences in means, assuming they exist.

## more than two means

In the previous section we compared two means. What if we want to compare means from more than two study subjects? The first step is again to determine which tests to use. Let's consider our hawaii aquifer data again, though this time let's use all the aquifers, not just two:


```r
K_data <- hawaii_aquifers %>%
  filter(analyte == "K")

K_data
## # A tibble: 110 × 6
##    aquifer_code well_name         longitude latitude analyte
##    <chr>        <chr>                 <dbl>    <dbl> <chr>  
##  1 aquifer_1    Alewa_Heights_Sp…       NA      NA   K      
##  2 aquifer_1    Beretania_High_S…       NA      NA   K      
##  3 aquifer_1    Beretania_Low_Se…       NA      NA   K      
##  4 aquifer_1    Kuliouou_Well         -158.     21.3 K      
##  5 aquifer_1    Manoa_Well_II         -158.     21.3 K      
##  6 aquifer_1    Moanalua_Wells_P…     -158.     21.4 K      
##  7 aquifer_1    Moanalua_Wells_P…     -158.     21.4 K      
##  8 aquifer_1    Moanalua_Wells_P…     -158.     21.4 K      
##  9 aquifer_1    Nuuanu_Aerator_W…     -158.     21.4 K      
## 10 aquifer_1    Palolo_Tunnel         -158.     21.3 K      
## # … with 100 more rows, and 1 more variable:
## #   abundance <dbl>
…
A p-value of 7.7e-11! There are definitely some significant differences among this group. But, WHICH are different from one another though? For this, we need to run Tukey's Honest Significant Difference test (implemented using `tukey_hsd`). This will essentially run t-test on all the pairs of study subjects that we can derive from our data set (in this example, aquifer_1 vs. aquifer_2, aquifer_1 vs. aquifer_3, etc.). After that, it will correct the p-values according to the number of comparisons that it performed. This controls the rate of type I error that we can expect from the test. These corrected values are provided to us in the `p.adj` column.


```r
K_data %>%
  tukey_hsd(abundance ~ aquifer_code)
## # A tibble: 45 × 9
##    term         group1     group2 null.value estimate conf.low
##  * <chr>        <chr>      <chr>       <dbl>    <dbl>    <dbl>
##  1 aquifer_code aquifer_1  aquif…          0  0.00357   -2.00 
##  2 aquifer_code aquifer_1  aquif…          0  1.44      -0.668
##  3 aquifer_code aquifer_1  aquif…          0  0.375     -2.35 
##  4 aquifer_code aquifer_1  aquif…          0 -1.15      -2.75 
##  5 aquifer_code aquifer_1  aquif…          0 -0.845     -3.09 
##  6 aquifer_code aquifer_1  aquif…          0  1.98       0.261
##  7 aquifer_code aquifer_1  aquif…          0  2.70       0.837
##  8 aquifer_code aquifer_1  aquif…          0 -0.125     -2.85 
##  9 aquifer_code aquifer_1  aquif…          0 -0.378     -1.78 
## 10 aquifer_code aquifer_10 aquif…          0  1.44      -0.910
## # … with 35 more rows, and 3 more variables:
## #   conf.high <dbl>, p.adj <dbl>, p.adj.signif <chr>
```
…
