hierarchical clustering | Integrated Bioanalytics
…
There is more that we can do with distance matrices though, lots more. Let’s start by looking at an example of hierarchical clustering. For this, we just need to tell runMatrixAnalyses() to use analysis = "hclust":

AK_lakes_clustered <- runMatrixAnalyses(
    data = alaska_lake_data_wide,
    analysis = c("hclust"),
    columns_w_values_for_single_analyte = colnames(alaska_lake_data_wide)[3:15],
    columns_w_sample_ID_info = c("lake", "park")
)
AK_lakes_clustered
## # A tibble: 38 × 26
##    sample_unique_ID   lake  park  parent  node branch.length
##    <chr>              <chr> <chr>  <int> <int>         <dbl>
##  1 Devil_Mountain_La… Devi… BELA      23     1         7.81 
##  2 Imuruk_Lake_BELA   Imur… BELA      25     2         6.01 
##  3 Kuzitrin_Lake_BELA Kuzi… BELA      24     3         3.27 
##  4 Lava_Lake_BELA     Lava… BELA      32     4         3.14 
##  5 North_Killeak_Lak… Nort… BELA      38     5       256.   
##  6 White_Fish_Lake_B… Whit… BELA      38     6         0.828
##  7 Iniakuk_Lake_GAAR  Inia… GAAR      36     7         2.59 
##  8 Kurupa_Lake_GAAR   Kuru… GAAR      30     8         6.00 
##  9 Lake_Matcharak_GA… Lake… GAAR      35     9         2.09 
## 10 Lake_Selby_GAAR    Lake… GAAR      29    10         3.49 
## # ℹ 28 more rows
## # ℹ 20 more variables: label <chr>, isTip <lgl>, x <dbl>,
## #   y <dbl>, branch <dbl>, angle <dbl>, bootstrap <lgl>,
## #   water_temp <dbl>, pH <dbl>, C <dbl>, N <dbl>, P <dbl>,
## #   Cl <dbl>, S <dbl>, F <dbl>, Br <dbl>, Na <dbl>,
## #   K <dbl>, Ca <dbl>, Mg <dbl>
…
