…
Now we've got a new object called `new_object`, and inside of it is the number 1. To look at what's inside an object, we can simply type the name of the object into the console:


``` r
new_object 
## [1] 1
```

Easy! Let's look at one of the objects that comes with our class code base. What are the dimensions of the "algae_data" data set?


``` r
algae_data
## # A tibble: 180 × 5
##    replicate algae_strain harvesting_regime chemical_species
##        <dbl> <chr>        <chr>             <chr>           
##  1         1 Tsv1         Heavy             FAs             
##  2         1 Tsv1         Heavy             saturated_Fas   
##  3         1 Tsv1         Heavy             omega_3_polyuns…
##  4         1 Tsv1         Heavy             monounsaturated…
##  5         1 Tsv1         Heavy             polyunsaturated…
##  6         1 Tsv1         Heavy             omega_6_polyuns…
##  7         1 Tsv1         Heavy             lysine          
##  8         1 Tsv1         Heavy             methionine      
##  9         1 Tsv1         Heavy             essential_Aas   
## 10         1 Tsv1         Heavy             non_essential_A…
## # ℹ 170 more rows
## # ℹ 1 more variable: abundance <dbl>
```
…
