Integrated Bioanalytics
…
objects

In R, data is stored in objects. You can think of objects as if they were “files” inside an R session. phylochemistry provides a variety of objects for us to work with. Let’s look at how to create an object. For this, we can use an arrow: <- . The arrow will take something and store it inside an object. For example:

new_object <- 1

Now we’ve got a new object called new_object, and inside of it is the number 1. To look at what’s inside an object, we can simply type the name of the object into the console:

new_object 
## [1] 1

Easy! Let’s look at one of the objects that comes with our class code base. What are the dimensions of the “algae_data” data set?

algae_data
## # A tibble: 180 × 5
##    replicate algae_strain harvesting_regime chemical_species
##        <dbl> <chr>        <chr>             <chr>           
##  1         1 Tsv1         Heavy             FAs             
##  2         1 Tsv1         Heavy             saturated_Fas   
##  3         1 Tsv1         Heavy             omega_3_polyuns…
##  4         1 Tsv1         Heavy             monounsaturated…
##  5         1 Tsv1         Heavy             polyunsaturated…
##  6         1 Tsv1         Heavy             omega_6_polyuns…
##  7         1 Tsv1         Heavy             lysine          
##  8         1 Tsv1         Heavy             methionine      
##  9         1 Tsv1         Heavy             essential_Aas   
## 10         1 Tsv1         Heavy             non_essential_A…
## # ℹ 170 more rows
## # ℹ 1 more variable: abundance <dbl>
…
While this format is very nice for filling in my hand (such as in a lab notebook or similar), it does not groove with ggplot and other tidyverse functions very well. We need to convert it into a long-style table. This is done using pivot_longer(). You can think of this function as transforming both your data’s column names (or some of the column names) and your data matrix’s values (in this case, the measurements) each into their own variables (i.e. columns). We can do this for our fatty acid dataset using the command below. In it, we specify what data we want to transform (data = fadb_sample), we need to tell it what columns we want to transform (cols = 2:11), what we want the new variable that contains column names to be called (names_to = "plant_species") and what we want the new variable that contains matrix values to be called (values_to = "relative_abundance"). All together now:

pivot_longer(data = fadb_sample, cols = 2:11, names_to = "plant_species", values_to = "relative_abundance")
## # A tibble: 70 × 3
##    fatty_acid        plant_species        relative_abundance
##    <chr>             <chr>                             <dbl>
##  1 Hexadecanoic acid Agonandra_brasilien…                3.4
##  2 Hexadecanoic acid Agonandra_silvatica                 1  
##  3 Hexadecanoic acid Agonandra_excelsa                   1.2
##  4 Hexadecanoic acid Heisteria_silvianii                 2.9
##  5 Hexadecanoic acid Malania_oleifera                    0.7
##  6 Hexadecanoic acid Ximenia_americana                   3.3
##  7 Hexadecanoic acid Ongokea_gore                        1  
##  8 Hexadecanoic acid Comandra_pallida                    2.3
##  9 Hexadecanoic acid Buckleya_distichoph…                1.6
## 10 Hexadecanoic acid Nuytsia_floribunda                  3.8
## # ℹ 60 more rows
…
Cool! Just like that, we’ve found (and visualized) the average and standard deviation of tree heights, by species, in NYC. But it doesn’t stop there. We can use group_by() and summarize() on multiple variables (i.e. more groups). We can do this to examine the properties of each tree species in each NYC borough. Let’s check it out:

ny_trees %>%
  group_by(spc_latin, boroname) %>%
  summarize(
    mean_diam = mean(tree_diameter),
    stdev_diam = sd(tree_diameter)
  ) -> ny_trees_by_spc_boro_summ
ny_trees_by_spc_boro_summ
## # A tibble: 48 × 4
## # Groups:   spc_latin [12]
##    spc_latin        boroname  mean_diam stdev_diam
##    <chr>            <chr>         <dbl>      <dbl>
##  1 ACER PLATANOIDES Bronx         13.9        6.74
##  2 ACER PLATANOIDES Brooklyn      15.4       14.9 
##  3 ACER PLATANOIDES Manhattan     11.6        8.45
##  4 ACER PLATANOIDES Queens        15.1       12.9 
##  5 ACER RUBRUM      Bronx         11.4        7.88
##  6 ACER RUBRUM      Brooklyn      10.5        7.41
##  7 ACER RUBRUM      Manhattan      6.63       4.23
##  8 ACER RUBRUM      Queens        14.1        8.36
##  9 ACER SACCHARINUM Bronx         19.7       10.5 
## 10 ACER SACCHARINUM Brooklyn      22.2       10.1 
## # ℹ 38 more rows
…
Now we are getting somewhere. It looks like there are some really big maple trees (Acer) in Queens.

ordering

We can also sort or order a data frame based on a specific column with the command arrange(). Let’s have a quick look. Suppose we wanted to know which lake was the coldest:

arrange(alaska_lake_data, water_temp)
## # A tibble: 220 × 7
##    lake             park  water_temp    pH element mg_per_L
##    <chr>            <chr>      <dbl> <dbl> <chr>      <dbl>
##  1 Desperation_Lake NOAT        2.95  6.34 C          2.1  
##  2 Desperation_Lake NOAT        2.95  6.34 N          0.005
##  3 Desperation_Lake NOAT        2.95  6.34 P          0    
##  4 Desperation_Lake NOAT        2.95  6.34 Cl         0.2  
##  5 Desperation_Lake NOAT        2.95  6.34 S          2.73 
##  6 Desperation_Lake NOAT        2.95  6.34 F          0.01 
##  7 Desperation_Lake NOAT        2.95  6.34 Br         0    
##  8 Desperation_Lake NOAT        2.95  6.34 Na         1.11 
##  9 Desperation_Lake NOAT        2.95  6.34 K          0.16 
## 10 Desperation_Lake NOAT        2.95  6.34 Ca         5.87 
## # ℹ 210 more rows
## # ℹ 1 more variable: element_type <chr>

Or suppose we wanted to know which was the warmest?

arrange(alaska_lake_data, desc(water_temp))
## # A tibble: 220 × 7
##    lake      park  water_temp    pH element mg_per_L
##    <chr>     <chr>      <dbl> <dbl> <chr>      <dbl>
##  1 Lava_Lake BELA        20.2  7.42 C          8.3  
##  2 Lava_Lake BELA        20.2  7.42 N          0.017
##  3 Lava_Lake BELA        20.2  7.42 P          0.001
##  4 Lava_Lake BELA        20.2  7.42 Cl         2.53 
##  5 Lava_Lake BELA        20.2  7.42 S          0.59 
##  6 Lava_Lake BELA        20.2  7.42 F          0.04 
##  7 Lava_Lake BELA        20.2  7.42 Br         0.01 
##  8 Lava_Lake BELA        20.2  7.42 Na         2.93 
##  9 Lava_Lake BELA        20.2  7.42 K          0.57 
## 10 Lava_Lake BELA        20.2  7.42 Ca        11.8  
## # ℹ 210 more rows
## # ℹ 1 more variable: element_type <chr>
…
In the previous chapters, we looked at how to explore our data sets by visualizing many variables and manually identifying trends. Sometimes, we encounter data sets with so many variables, that it is not reasonable to manually select certain variables with which to create plots and manually search for trends. In these cases, we need dimensionality reduction - a set of techniques that helps us identify which variables are driving differences among our samples. In this course, we will conduct dimensionality reduction useing runMatrixAnalysis(), a function that is loaded into your R Session when you run the source() command.

Matrix analyses can be a bit tricky to set up. There are two things that we can do to help us with this: (i) we will use a template for runMatrixAnalysis() (see below) and (ii) it is critical that we think about our data in terms of samples and analytes. Let’s consider our Alaska lakes data set:

alaska_lake_data
## # A tibble: 220 × 7
##    lake              park  water_temp    pH element mg_per_L
##    <chr>             <chr>      <dbl> <dbl> <chr>      <dbl>
##  1 Devil_Mountain_L… BELA        6.46  7.69 C          3.4  
##  2 Devil_Mountain_L… BELA        6.46  7.69 N          0.028
##  3 Devil_Mountain_L… BELA        6.46  7.69 P          0    
##  4 Devil_Mountain_L… BELA        6.46  7.69 Cl        10.4  
##  5 Devil_Mountain_L… BELA        6.46  7.69 S          0.62 
##  6 Devil_Mountain_L… BELA        6.46  7.69 F          0.04 
##  7 Devil_Mountain_L… BELA        6.46  7.69 Br         0.02 
##  8 Devil_Mountain_L… BELA        6.46  7.69 Na         8.92 
##  9 Devil_Mountain_L… BELA        6.46  7.69 K          1.2  
## 10 Devil_Mountain_L… BELA        6.46  7.69 Ca         5.73 
## # ℹ 210 more rows
## # ℹ 1 more variable: element_type <chr>
…
There is more that we can do with distance matrices though, lots more. Let’s start by looking at an example of hierarchical clustering. For this, we just need to tell runMatrixAnalysis() to use analysis = "hclust":

AK_lakes_clustered <- runMatrixAnalysis(
    data = alaska_lake_data,
    analysis = "hclust",
    column_w_names_of_multiple_analytes = "element",
    column_w_values_for_multiple_analytes = "mg_per_L",
    columns_w_values_for_single_analyte = c("water_temp", "pH"),
    columns_w_additional_analyte_info = "element_type",
    columns_w_sample_ID_info = c("lake", "park"),
    na_replacement = "mean"
)
## Replacing NAs in your data with mean
AK_lakes_clustered
## # A tibble: 39 × 25
##    sample_unique_ID   lake  park  parent  node branch.length
##    <chr>              <chr> <chr>  <int> <int>         <dbl>
##  1 Devil_Mountain_La… Devi… BELA      33     1         0.987
##  2 Imuruk_Lake_BELA   Imur… BELA      39     2         0.820
##  3 Kuzitrin_Lake_BELA Kuzi… BELA      38     3         0.703
##  4 Lava_Lake_BELA     Lava… BELA      31     4         0.743
##  5 North_Killeak_Lak… Nort… BELA      21     5         5.62 
##  6 White_Fish_Lake_B… Whit… BELA      22     6         3.89 
##  7 Iniakuk_Lake_GAAR  Inia… GAAR      28     7         1.25 
##  8 Kurupa_Lake_GAAR   Kuru… GAAR      35     8         0.954
##  9 Lake_Matcharak_GA… Lake… GAAR      35     9         0.954
## 10 Lake_Selby_GAAR    Lake… GAAR      36    10         1.12 
## # ℹ 29 more rows
## # ℹ 19 more variables: label <chr>, isTip <lgl>, x <dbl>,
## #   y <dbl>, branch <dbl>, angle <dbl>, water_temp <dbl>,
## #   pH <dbl>, C <dbl>, N <dbl>, P <dbl>, Cl <dbl>, S <dbl>,
## #   F <dbl>, Br <dbl>, Na <dbl>, K <dbl>, Ca <dbl>,
## #   Mg <dbl>
…
“Are these two things the same?”

Often, we want to know if our study subjects contain different amounts of certain analytes. For example, “Does this lake over here contain more potassium than that lake over there?” For this, we need statistical tests. Here, we will have a look at comparing mean values for analyte abundance in situations with two samples and in situations with more than two samples.

I find many of the concepts discussed in this chapter easier to think about with an example in mind. For that, suppose that you are an analytical chemist on Hawaii that is studying the chemistry of the island’s aquifers. you have the data set hawaii_aquifers. You can see in the output below the structure of the data set - we have 990 measurements of a 9 different analytes in multiple wells that draw on a set of 10 aquifers.

hawaii_aquifers
## # A tibble: 954 × 6
##    aquifer_code well_name         longitude latitude analyte
##    <chr>        <chr>                 <dbl>    <dbl> <chr>  
##  1 aquifer_1    Alewa_Heights_Sp…        NA       NA SiO2   
##  2 aquifer_1    Alewa_Heights_Sp…        NA       NA Cl     
##  3 aquifer_1    Alewa_Heights_Sp…        NA       NA Mg     
##  4 aquifer_1    Alewa_Heights_Sp…        NA       NA Na     
##  5 aquifer_1    Alewa_Heights_Sp…        NA       NA K      
##  6 aquifer_1    Alewa_Heights_Sp…        NA       NA SO4    
##  7 aquifer_1    Alewa_Heights_Sp…        NA       NA HCO3   
##  8 aquifer_1    Alewa_Heights_Sp…        NA       NA dissol…
##  9 aquifer_1    Alewa_Heights_Sp…        NA       NA Ca     
## 10 aquifer_1    Beretania_High_S…        NA       NA SiO2   
## # ℹ 944 more rows
## # ℹ 1 more variable: abundance <dbl>
…
When we are comparing means, we need to first determine what kind of statistical tests we can use with our data. If (i) our data can be reasonably modelled by a normal distribution and (ii) the variances about the two means are similar, then we can use the more powerful “parametric” tests (i.e. tests that will be more likely to detect a difference in means, assuming one exists). If one of these criteria are not met, then we need to use less powerful “non-parametric” tests.

We can check our data for normality and similar variances using the Shapiro test and the Levene test. Let’s use the hawaii_aquifers data as an example, and let’s consider only the element potassium:

K_data <- hawaii_aquifers %>%
  filter(analyte == "K")
  K_data
## # A tibble: 106 × 6
##    aquifer_code well_name         longitude latitude analyte
##    <chr>        <chr>                 <dbl>    <dbl> <chr>  
##  1 aquifer_1    Alewa_Heights_Sp…       NA      NA   K      
##  2 aquifer_1    Beretania_High_S…       NA      NA   K      
##  3 aquifer_1    Beretania_Low_Se…       NA      NA   K      
##  4 aquifer_1    Kuliouou_Well         -158.     21.3 K      
##  5 aquifer_1    Manoa_Well_II         -158.     21.3 K      
##  6 aquifer_1    Moanalua_Wells_P…     -158.     21.4 K      
##  7 aquifer_1    Moanalua_Wells_P…     -158.     21.4 K      
##  8 aquifer_1    Moanalua_Wells_P…     -158.     21.4 K      
##  9 aquifer_1    Nuuanu_Aerator_W…     -158.     21.4 K      
## 10 aquifer_1    Palolo_Tunnel         -158.     21.3 K      
## # ℹ 96 more rows
## # ℹ 1 more variable: abundance <dbl>

To work with two means, let’s just look at aquifers 1 and 6:

K_data_1_6 <- K_data %>%
    filter(aquifer_code %in% c("aquifer_1", "aquifer_6"))

K_data_1_6
## # A tibble: 24 × 6
##    aquifer_code well_name         longitude latitude analyte
##    <chr>        <chr>                 <dbl>    <dbl> <chr>  
##  1 aquifer_1    Alewa_Heights_Sp…       NA      NA   K      
##  2 aquifer_1    Beretania_High_S…       NA      NA   K      
##  3 aquifer_1    Beretania_Low_Se…       NA      NA   K      
##  4 aquifer_1    Kuliouou_Well         -158.     21.3 K      
##  5 aquifer_1    Manoa_Well_II         -158.     21.3 K      
##  6 aquifer_1    Moanalua_Wells_P…     -158.     21.4 K      
##  7 aquifer_1    Moanalua_Wells_P…     -158.     21.4 K      
##  8 aquifer_1    Moanalua_Wells_P…     -158.     21.4 K      
##  9 aquifer_1    Nuuanu_Aerator_W…     -158.     21.4 K      
## 10 aquifer_1    Palolo_Tunnel         -158.     21.3 K      
## # ℹ 14 more rows
## # ℹ 1 more variable: abundance <dbl>
…
A p-value of 0.028! This is higher than the value given by the t-test (0.012). That is because the Wilcox test is a less powerful test: it is less likely to detect differences in means, assuming they exist.

more than two means

In the previous section we compared two means. What if we want to compare means from more than two study subjects? The first step is again to determine which tests to use. Let’s consider our hawaii aquifer data again, though this time let’s use all the aquifers, not just two:

K_data <- hawaii_aquifers %>%
  filter(analyte == "K")

K_data
## # A tibble: 106 × 6
##    aquifer_code well_name         longitude latitude analyte
##    <chr>        <chr>                 <dbl>    <dbl> <chr>  
##  1 aquifer_1    Alewa_Heights_Sp…       NA      NA   K      
##  2 aquifer_1    Beretania_High_S…       NA      NA   K      
##  3 aquifer_1    Beretania_Low_Se…       NA      NA   K      
##  4 aquifer_1    Kuliouou_Well         -158.     21.3 K      
##  5 aquifer_1    Manoa_Well_II         -158.     21.3 K      
##  6 aquifer_1    Moanalua_Wells_P…     -158.     21.4 K      
##  7 aquifer_1    Moanalua_Wells_P…     -158.     21.4 K      
##  8 aquifer_1    Moanalua_Wells_P…     -158.     21.4 K      
##  9 aquifer_1    Nuuanu_Aerator_W…     -158.     21.4 K      
## 10 aquifer_1    Palolo_Tunnel         -158.     21.3 K      
## # ℹ 96 more rows
## # ℹ 1 more variable: abundance <dbl>
…
We will use the anovaTest function from the package rstatix. It will tell us if any of the means in the data are statistically different from one another. However, if there are differences between the means, it will not tell us which of them are different.

K_data %>%
  anovaTest(abundance ~ aquifer_code)
## ANOVA Table (type II tests)
## 
##         Effect DFn DFd     F        p p<.05   ges
## 1 aquifer_code   9  96 9.486 3.28e-10     * 0.471

A p-value of 7.7e-11! There are definitely some significant differences among this group. But, WHICH are different from one another though? For this, we need to run Tukey’s Honest Significant Difference test (implemented using tukey_hsd). This will essentially run t-test on all the pairs of study subjects that we can derive from our data set (in this example, aquifer_1 vs. aquifer_2, aquifer_1 vs. aquifer_3, etc.). After that, it will correct the p-values according to the number of comparisons that it performed. This controls the rate of type I error that we can expect from the test. These corrected values are provided to us in the p.adj column.

K_data %>%
  tukey_hsd(abundance ~ aquifer_code)
## # A tibble: 45 × 9
##    term         group1   group2 null.value estimate conf.low
##  * <chr>        <chr>    <chr>       <dbl>    <dbl>    <dbl>
##  1 aquifer_code aquifer… aquif…          0  0.00357   -2.04 
##  2 aquifer_code aquifer… aquif…          0  1.44      -0.708
##  3 aquifer_code aquifer… aquif…          0  0.375     -2.40 
##  4 aquifer_code aquifer… aquif…          0 -1.15      -2.78 
##  5 aquifer_code aquifer… aquif…          0 -0.875     -3.36 
##  6 aquifer_code aquifer… aquif…          0  1.98       0.228
##  7 aquifer_code aquifer… aquif…          0  2.70       0.801
##  8 aquifer_code aquifer… aquif…          0 -0.125     -2.90 
##  9 aquifer_code aquifer… aquif…          0 -0.349     -1.80 
## 10 aquifer_code aquifer… aquif…          0  1.44      -0.954
## # ℹ 35 more rows
## # ℹ 3 more variables: conf.high <dbl>, p.adj <dbl>,
## #   p.adj.signif <chr>
…
