4 Exercises 1 | R For Chemists
…
Which algae strain has the most abundant compound out of all the compounds in the dataset?

Plotting

Make a ggplot that has abundance on the x axis and chemical_species on the y axis. Use points to represent each compound. You don’t need to color the points.

Generally speaking, what are the two most abundant classes of chemical species in these algae strains? (FAs/Fas stand for fatty acids, AAs/Aas stand for amino acids.)

Filtering and plotting

I am going to show you an example of how you can filter and plot at the same time:

library(tidyverse)
algae_data_data
## # A tibble: 180 × 5
##    replicate algae_strain harvesting_regime chemical_species           abundance
##        <dbl> <chr>        <chr>             <chr>                          <dbl>
##  1         1 Tsv1         Heavy             FAs                            520. 
##  2         1 Tsv1         Heavy             saturated_Fas                  123. 
##  3         1 Tsv1         Heavy             omega_3_polyunsaturated_F…     186. 
##  4         1 Tsv1         Heavy             monounsaturated_Fas             28.4
##  5         1 Tsv1         Heavy             polyunsaturated_Fas            369. 
##  6         1 Tsv1         Heavy             omega_6_polyunsaturated_F…     183. 
##  7         1 Tsv1         Heavy             lysine                          84.1
##  8         1 Tsv1         Heavy             methionine                      24.1
##  9         1 Tsv1         Heavy             essential_Aas                  692. 
## 10         1 Tsv1         Heavy             non_essential_Aas              919. 
## # … with 170 more rows
…
