7 FAQ | R For Chemists
…
On Mac: /Users/lucasbusta/Documents/sample_data_set.csv (note the forward slashes!)

On PC: C:\My Computer\Documents\sample_data_set.csv (note the backward slashes!)

You can quickly find paths to files via the following:

On Mac: Locate the file in Finder. Right-click on the file, hold the Option key, then click “Copy  as Pathname”

On PC: Locate the file in Windows Explorer. Hold down the Shift key then right-click on the file. Click “Copy As Path”

With these paths, we can read in data. For this, we’re going to use a function from the tidyverse called read_csv. This means we need to first load the tidyverse. We’ll use it to read some data from a path on our computer. This is a link to the original, untidied version of the data, but you can download a tidied version of the data by clicking here. We’re going to import that tidied version (not the original, untidied version) using the read_csv command. We’ll run read_csv("<path_to_your_data>"). Note the use of QUOTES ""! Those are necessary. Also make sure your path uses the appropriate direction of slashes for your operating system.

library(tidyverse)
read_csv("https://thebustalab.github.io/R_For_Chemists_2/sample_data/algae_data.csv")
## # A tibble: 180 × 5
##    replicate algae_strain harvesting_regime chemical_species           abundance
##        <dbl> <chr>        <chr>             <chr>                          <dbl>
##  1         1 Tsv1         Heavy             FAs                            520. 
##  2         1 Tsv1         Heavy             saturated_Fas                  123. 
##  3         1 Tsv1         Heavy             omega_3_polyunsaturated_F…     186. 
##  4         1 Tsv1         Heavy             monounsaturated_Fas             28.4
##  5         1 Tsv1         Heavy             polyunsaturated_Fas            369. 
##  6         1 Tsv1         Heavy             omega_6_polyunsaturated_F…     183. 
##  7         1 Tsv1         Heavy             lysine                          84.1
##  8         1 Tsv1         Heavy             methionine                      24.1
##  9         1 Tsv1         Heavy             essential_Aas                  692. 
## 10         1 Tsv1         Heavy             non_essential_Aas              919. 
## # … with 170 more rows

All we have to do is use <- to send the information from our read_csv command into a new object. This will create the object. See the example below.

algae_data <- read_csv("https://thebustalab.github.io/R_For_Chemists_2/sample_data/algae_data.csv")

Now we have an object called algae_data. We can examine the contents of that object by typing its name. For example:

algae_data
## # A tibble: 180 × 5
##    replicate algae_strain harvesting_regime chemical_species           abundance
##        <dbl> <chr>        <chr>             <chr>                          <dbl>
##  1         1 Tsv1         Heavy             FAs                            520. 
##  2         1 Tsv1         Heavy             saturated_Fas                  123. 
##  3         1 Tsv1         Heavy             omega_3_polyunsaturated_F…     186. 
##  4         1 Tsv1         Heavy             monounsaturated_Fas             28.4
##  5         1 Tsv1         Heavy             polyunsaturated_Fas            369. 
##  6         1 Tsv1         Heavy             omega_6_polyunsaturated_F…     183. 
##  7         1 Tsv1         Heavy             lysine                          84.1
##  8         1 Tsv1         Heavy             methionine                      24.1
##  9         1 Tsv1         Heavy             essential_Aas                  692. 
## 10         1 Tsv1         Heavy             non_essential_Aas              919. 
## # … with 170 more rows
…
