6 import and tidying | R For Chemists
…
While this format is very nice for filling in my hand (such as in a lab notebook or similar), it does not groove with ggplot and other tidyverse functions very well. We need to convert it into a long-style table. This is done using pivot_longer(). You can think of this function as transforming both your data’s column names (or some of the column names) and your data matrix’s values (in this case, the measurements) each into their own variables (i.e. columns). We can do this for our fatty acid dataset using the command below. In it, we specify what data we want to transform (data = fadb_sample), we need to tell it what columns we want to transform (cols = 2:11), what we want the new variable that contains column names to be called (names_to = "plant_species") and what we want the new variable that contains matrix values to be called (values_to = "relative_abundance"). All together now:

pivot_longer(data = fadb_sample, cols = 2:11, names_to = "plant_species", values_to = "relative_abundance")
## # A tibble: 70 × 3
##    fatty_acid        plant_species           relative_abundance
##    <chr>             <chr>                                <dbl>
##  1 Hexadecanoic acid Agonandra_brasiliensis                 3.4
##  2 Hexadecanoic acid Agonandra_silvatica                    1  
##  3 Hexadecanoic acid Agonandra_excelsa                      1.2
##  4 Hexadecanoic acid Heisteria_silvianii                    2.9
##  5 Hexadecanoic acid Malania_oleifera                       0.7
##  6 Hexadecanoic acid Ximenia_americana                      3.3
##  7 Hexadecanoic acid Ongokea_gore                           1  
##  8 Hexadecanoic acid Comandra_pallida                       2.3
##  9 Hexadecanoic acid Buckleya_distichophylla                1.6
## 10 Hexadecanoic acid Nuytsia_floribunda                     3.8
## # … with 60 more rows
…
