2 ggplot and markdown | R For Chemists
…
Ok, we’ve got the installation out of the way. Let’s get down to working with data and generating reports! In R, data is stored in objects. You can think of objects as if they were “files” inside an R session. phylochemistry provides a variety of objects for us to work with.

Let’s look at how to create an object. For this, we can use an arrow: <- . The arrow will take something and store it inside an object. For example:

new_object <- 1

Now we’ve got a new object called new_object, and inside of it is the number 1. To look at what’s inside an object, we can simply type the name of the object into the console:

new_object
## [1] 1

Easy! Let’s look at one of the objects that comes with our class code base. What are the dimensions of the “algae_data” data set?

algae_data
## # A tibble: 180 × 5
##    replicate algae_strain harvesting_regime chemical_species           abundance
##        <dbl> <chr>        <chr>             <chr>                          <dbl>
##  1         1 Tsv1         Heavy             FAs                            520. 
##  2         1 Tsv1         Heavy             saturated_Fas                  123. 
##  3         1 Tsv1         Heavy             omega_3_polyunsaturated_F…     186. 
##  4         1 Tsv1         Heavy             monounsaturated_Fas             28.4
##  5         1 Tsv1         Heavy             polyunsaturated_Fas            369. 
##  6         1 Tsv1         Heavy             omega_6_polyunsaturated_F…     183. 
##  7         1 Tsv1         Heavy             lysine                          84.1
##  8         1 Tsv1         Heavy             methionine                      24.1
##  9         1 Tsv1         Heavy             essential_Aas                  692. 
## 10         1 Tsv1         Heavy             non_essential_Aas              919. 
## # … with 170 more rows
…
