7 the pipe and summaries | R For Chemists
…
The pipe will become more important as our analyses become more sophisticated, which happens very quickly when we start working with summary statistics, as we shall now see…

7.2 summary statistics

So far, we have been plotting raw data. This is well and good, but it is not always suitable. Often we have scientific questions that cannot be answered by looking at raw data alone, or sometimes there is too much raw data to plot. For this, we need summary statistics - things like averages, standard deviations, and so on. While these metrics can be computed in Excel, programming such can be time consuming, especially for group statistics. Consider the example below, which uses the ny_trees dataset. The NY Trees dataset contains information on nearly half a million trees in New York City (this is after considerable filtering and simplification):

ny_trees
## # A tibble: 378,762 × 14
##    tree_height tree_diameter address tree_loc pit_type soil_lvl status spc_latin
##          <dbl>         <dbl> <chr>   <chr>    <chr>    <chr>    <chr>  <chr>    
##  1        21.1             6 1139 5… Front    Sidewal… Level    Good   PYRUS CA…
##  2        59.0             6 2220 B… Across   Sidewal… Level    Good   PLATANUS…
##  3        92.4            13 2254 B… Across   Sidewal… Level    Good   PLATANUS…
##  4        50.2            15 2332 B… Across   Sidewal… Level    Good   PLATANUS…
##  5        95.0            21 2361 E… Front    Sidewal… Level    Poor   PLATANUS…
##  6        67.5            19 2409 E… Front    Continu… Level    Good   PLATANUS…
##  7        75.3            11 1481 E… Front    Lawn     Level    Excel… PLATANUS…
##  8        27.9             7 1129 5… Front    Sidewal… Level    Good   PYRUS CA…
##  9       111.             26 2076 E… Across   Sidewal… Level    Excel… PLATANUS…
## 10        83.9            20 2025 E… Front    Sidewal… Level    Excel… PLATANUS…
## # … with 378,752 more rows, and 6 more variables: spc_common <chr>,
## #   trunk_dmg <chr>, zipcode <dbl>, boroname <chr>, latitude <dbl>,
## #   longitude <dbl>
…
Cool! Just like that, we’ve found (and visualized) the average and standard deviation of tree heights, by species, in NYC. But it doesn’t stop there. We can use group_by() and summarize() on multiple variables (i.e. more groups). We can do this to examine the properties of each tree species in each NYC borough. Let’s check it out:

ny_trees %>%
  group_by(spc_latin, boroname) %>%
  summarize(
    mean_diam = mean(tree_diameter),
    stdev_diam = sd(tree_diameter)
  ) -> ny_trees_by_spc_boro_summ
## `summarise()` has grouped output by 'spc_latin'. You can override using the `.groups` argument.
ny_trees_by_spc_boro_summ
## # A tibble: 48 × 4
## # Groups:   spc_latin [12]
##    spc_latin        boroname  mean_diam stdev_diam
##    <chr>            <chr>         <dbl>      <dbl>
##  1 ACER PLATANOIDES Bronx         13.9        6.74
##  2 ACER PLATANOIDES Brooklyn      15.4       14.9 
##  3 ACER PLATANOIDES Manhattan     11.6        8.45
##  4 ACER PLATANOIDES Queens        15.1       12.9 
##  5 ACER RUBRUM      Bronx         11.4        7.88
##  6 ACER RUBRUM      Brooklyn      10.5        7.41
##  7 ACER RUBRUM      Manhattan      6.63       4.23
##  8 ACER RUBRUM      Queens        14.1        8.36
##  9 ACER SACCHARINUM Bronx         19.7       10.5 
## 10 ACER SACCHARINUM Brooklyn      22.2       10.1 
## # … with 38 more rows
…
