13 wrangling 2 | R For Chemists
…
            R For Chemists

13 wrangling 2

13.1 subsetting

So far, we have always been passing whole data sets to ggplot to do our plotting. However, suppose we wanted to get at just certain portions of our dataset, say, specific columns, or specific rows? Here are a few ways to do that:

# To look at a single column (the third column)
alaska_lake_data[,3]
## # A tibble: 220 × 1
##    water_temp
##         <dbl>
##  1       6.46
##  2       6.46
##  3       6.46
##  4       6.46
##  5       6.46
##  6       6.46
##  7       6.46
##  8       6.46
##  9       6.46
## 10       6.46
## # … with 210 more rows
# To look at select columns:
alaska_lake_data[,2:5]
## # A tibble: 220 × 4
##    park  water_temp    pH element
##    <chr>      <dbl> <dbl> <chr>  
##  1 BELA        6.46  7.69 C      
##  2 BELA        6.46  7.69 N      
##  3 BELA        6.46  7.69 P      
##  4 BELA        6.46  7.69 Cl     
##  5 BELA        6.46  7.69 S      
##  6 BELA        6.46  7.69 F      
##  7 BELA        6.46  7.69 Br     
##  8 BELA        6.46  7.69 Na     
##  9 BELA        6.46  7.69 K      
## 10 BELA        6.46  7.69 Ca     
## # … with 210 more rows
…
##  [46] 8.04 8.04 8.04 8.04 8.04 8.04 8.04 8.04 8.04 8.04 7.82 7.82 7.82 7.82 7.82
##  [61] 7.82 7.82 7.82 7.82 7.82 7.82 7.01 7.01 7.01 7.01 7.01 7.01 7.01 7.01 7.01
##  [76] 7.01 7.01 7.03 7.03 7.03 7.03 7.03 7.03 7.03 7.03 7.03 7.03 7.03 6.95 6.95
##  [91] 6.95 6.95 6.95 6.95 6.95 6.95 6.95 6.95 6.95 7.15 7.15 7.15 7.15 7.15 7.15
## [106] 7.15 7.15 7.15 7.15 7.15 6.88 6.88 6.88 6.88 6.88 6.88 6.88 6.88 6.88 6.88
## [121] 6.88 6.45 6.45 6.45 6.45 6.45 6.45 6.45 6.45 6.45 6.45 6.45 6.88 6.88 6.88
## [136] 6.88 6.88 6.88 6.88 6.88 6.88 6.88 6.88 7.22 7.22 7.22 7.22 7.22 7.22 7.22
## [151] 7.22 7.22 7.22 7.22 6.98 6.98 6.98 6.98 6.98 6.98 6.98 6.98 6.98 6.98 6.98
## [166] 6.34 6.34 6.34 6.34 6.34 6.34 6.34 6.34 6.34 6.34 6.34 7.24 7.24 7.24 7.24
## [181] 7.24 7.24 7.24 7.24 7.24 7.24 7.24 6.56 6.56 6.56 6.56 6.56 6.56 6.56 6.56
## [196] 6.56 6.56 6.56 7.31 7.31 7.31 7.31 7.31 7.31 7.31 7.31 7.31 7.31 7.31 6.87
## [211] 6.87 6.87 6.87 6.87 6.87 6.87 6.87 6.87 6.87 6.87
# To look at select columns by name
select(alaska_lake_data, park, water_temp)
## # A tibble: 220 × 2
##    park  water_temp
##    <chr>      <dbl>
##  1 BELA        6.46
##  2 BELA        6.46
##  3 BELA        6.46
##  4 BELA        6.46
##  5 BELA        6.46
##  6 BELA        6.46
##  7 BELA        6.46
##  8 BELA        6.46
##  9 BELA        6.46
## 10 BELA        6.46
## # … with 210 more rows
